lat,long
38.32572,-74.78899
39.57337,-75.17424
40.1769,-74.049995
41.649002,-75.06626
40.727486,-74.68336
39.640892,-73.01546
38.76907,-72.462166
39.975994,-73.61907
39.098167,-73.62069
39.38856,-75.7997
39.120686,-74.96771
41.974747,-72.50672
40.77435,-72.474
38.656097,-73.48895
39.06015,-75.08231
41.418,-75.94139
40.639275,-73.69567
40.02273,-72.52667
38.24784,-74.44732
41.01897,-72.16652
39.877094,-74.56687
38.580517,-74.8049
39.84381,-73.48773
38.62074,-74.21537
40.42895,-72.2897
41.17079,-73.44978
39.39915,-75.06908
40.417904,-74.73175
40.46501,-72.24905
41.12538,-75.950745
41.90422,-74.99388
40.26191,-72.31341
38.831097,-72.51729
38.22994,-74.49846
39.88403,-75.86204
41.589714,-74.616425
38.697987,-72.29614
41.927673,-72.61146
39.01305,-74.37792
38.628754,-73.11106
38.53615,-75.485794
40.707333,-74.22135
40.928757,-72.62078
40.269432,-75.9069
40.058098,-72.942825
38.170315,-74.35118
41.755295,-75.10345
41.35966,-74.467476
39.915035,-72.2345
38.44734,-75.361404
39.305614,-75.628044
38.16425,-75.31195
40.70419,-73.81777
38.43602,-73.45293
38.01252,-75.005936
39.345192,-72.953674
41.23756,-75.567955
39.756493,-72.706184
38.346058,-74.64281
41.05729,-75.35287
38.042435,-75.452675
41.37288,-72.40054
40.806732,-73.79828
38.61664,-74.063
41.708523,-74.89298
38.5043,-73.697624
39.54105,-72.01313
41.688007,-74.02782
38.966167,-74.97465
38.74988,-75.987434
39.20795,-74.75575
41.050262,-74.638115
38.27449,-72.168686
40.277954,-73.285774
40.931667,-75.77307
38.737312,-72.185074
39.217976,-75.59121
39.48043,-73.03632
41.008648,-75.93976
39.715366,-74.24892
40.154495,-72.078926
38.669186,-75.51072
41.493137,-75.58315
40.245552,-74.839264
40.32725,-74.47753
40.19198,-75.714516
40.868137,-73.31986
39.694218,-75.255775
38.04774,-74.53656
41.771263,-73.297226
39.715374,-75.37373
40.791496,-73.665115
39.57631,-72.67506
40.92,-75.428955
40.63007,-73.15329
40.202095,-74.292435
41.971397,-72.62884
41.964386,-72.94637
39.583202,-75.55053
38.760406,-72.90316
41.44818,-73.610985
41.504257,-73.285515
41.51614,-73.98141
38.835457,-74.902985
38.681694,-74.113335
39.067467,-72.808556
38.159355,-72.621925
41.029373,-75.91154
40.009254,-75.84801
39.26569,-74.096886
40.899166,-73.60257
39.77644,-74.06723
40.631348,-75.5738
39.934536,-72.62232
41.973366,-75.10712
39.39799,-72.59853
38.679802,-72.67364
41.541862,-75.923386
39.3586,-75.38059
40.781765,-74.348885
39.41652,-73.34529
38.573845,-73.00329
40.419525,-73.5848
40.092537,-74.97005
38.845627,-74.13849
39.65922,-74.13113
40.72166,-75.24831
38.784203,-72.400955
41.666393,-74.31799
41.867794,-75.56765
41.366962,-73.74148
40.67173,-75.026436
41.763855,-74.15293
39.92024,-73.95188
40.793182,-73.7656
38.934685,-73.56262
38.328506,-72.72904
38.971813,-73.17451
39.185036,-72.27899
41.662277,-74.243095
41.216087,-72.25145
40.18357,-72.52905
41.477314,-72.59122
40.913273,-73.28215
39.30294,-74.05174
41.470318,-74.77153
38.3871,-74.54051
41.25223,-72.86917
41.36193,-74.634125
41.615356,-74.43409
39.994167,-73.7278
41.33698,-73.099976
38.37854,-74.09166
38.367897,-72.32823
41.095856,-75.71443
38.370358,-74.27878
39.246155,-74.09458
38.189774,-75.63771
39.894585,-74.89945
40.092697,-73.92656
38.424244,-72.39878
38.993797,-72.341286
39.5333,-74.47549
38.479626,-74.60898
40.4125,-75.44376
39.517033,-73.92037
39.57612,-73.421326
39.42326,-72.34929
39.78867,-74.10525
41.897884,-73.39621
39.738506,-74.922554
41.4129,-74.91918
41.077305,-72.03896
39.576813,-74.706345
39.003357,-73.9204
41.594837,-72.70275
39.86108,-73.29801
40.816162,-74.26986
39.716297,-75.67239
39.579025,-72.10598
39.3161,-74.02745
40.93542,-72.30566
38.33572,-74.267105
39.973717,-74.636856
40.74684,-74.035774
39.784042,-72.05803
38.219925,-75.96886
39.86739,-75.80809
38.716225,-75.91405
41.024662,-73.54846
39.16585,-75.07685
39.34067,-74.91716
39.01052,-72.119576
38.475384,-72.812614
39.37096,-75.66673
39.579094,-73.53559
40.948658,-74.06207
40.060608,-73.79609
40.071728,-73.141174
38.270973,-73.191635
40.43972,-75.72641
41.845535,-72.172646
39.319416,-72.94986
39.71285,-73.25798
40.712173,-75.73702
39.180435,-74.31315
39.185623,-74.14754
39.408226,-74.4585
39.782814,-74.01531
41.156425,-74.47359
38.147324,-74.64263
39.933754,-75.68525
41.502907,-72.30232
38.375317,-72.98514
41.48303,-75.04744
38.460087,-75.9693
38.41365,-73.81515
38.461887,-73.819305
41.21879,-72.97444
40.553062,-75.47654
39.662495,-72.17658
40.79768,-75.36584
41.49469,-73.43204
39.744102,-73.30159
41.876427,-75.50363
39.631287,-75.601036
39.179756,-73.65637
41.847023,-73.61059
41.157932,-72.16165
39.020763,-72.03896
41.144844,-72.27474
39.11164,-75.33579
40.263756,-74.18684
41.98963,-75.94777
40.810543,-75.1295
40.043007,-74.15245
40.5462,-72.751
39.828773,-75.27837
39.418808,-75.40009
40.07818,-72.87042
39.381184,-75.28867
39.65222,-75.59239
41.934254,-73.84425
40.300953,-73.65086
40.576874,-74.027565
41.115623,-74.99124
39.563046,-72.03837
41.98799,-72.6101
39.651142,-72.659584
38.632053,-75.637985
38.584267,-73.43007
40.018337,-74.40056
39.88575,-75.76068
39.470467,-72.92856
40.52083,-75.82525
40.04138,-75.26078
40.70956,-72.31395
38.79802,-73.708626
41.63385,-74.61488
40.786724,-75.803925
41.232716,-72.31131
40.028126,-73.147354
40.306606,-74.6059
38.01262,-75.46651
38.64823,-75.905525
40.76207,-73.96911
39.09108,-73.75372
40.328056,-73.066475
41.736893,-75.954994
41.16253,-73.708984
40.022236,-74.40292
39.486626,-72.322105
39.85605,-73.05027
40.773464,-75.49792
41.262154,-72.82579
40.738834,-75.46039
39.56223,-73.23193
39.60128,-75.59791
38.21817,-75.90744
40.44263,-74.19618
40.41223,-74.60598
41.69822,-74.49786
40.986248,-74.759445
38.370255,-75.3905
40.506676,-73.93352
38.53953,-75.84526
38.30276,-72.8528
39.012848,-72.59879
40.98471,-74.0181
41.161892,-74.82874
38.14502,-72.944435
41.67245,-74.4973
40.948017,-75.33472
38.331207,-74.841675
40.70275,-72.6302
39.244347,-74.82816
40.186726,-74.840996
38.933807,-72.34636
38.64991,-74.79078
40.331017,-72.03095
40.599552,-75.281685
38.33577,-74.82365
40.47815,-74.50564
38.692196,-72.13085
38.344822,-73.544266
38.630882,-73.532364
39.11034,-74.19362
38.023838,-75.73115
39.528694,-74.74398
39.49862,-73.5179
40.09455,-75.79752
38.67206,-75.109695
40.631367,-73.71321
39.81914,-75.89919
41.38594,-74.76346
38.126442,-74.44681
38.891632,-73.44075
38.24327,-75.92803
40.05605,-75.37442
41.000317,-75.113945
41.514637,-74.75306
41.59107,-72.6546
38.225956,-72.681206
40.69395,-74.73022
41.837204,-73.15027
39.253414,-74.24795
39.101902,-74.832184
40.049873,-73.34595
41.479733,-73.20617
39.696907,-75.109985
40.198906,-75.037285
38.04777,-74.63985
40.03305,-74.31218
39.72298,-72.8863
40.670002,-72.70992
39.94977,-74.41877
39.973293,-73.79168
40.308067,-73.31709
39.115692,-72.5143
41.29514,-74.98635
40.267246,-74.53189
38.65239,-74.5864
39.33035,-74.104164
39.756706,-72.09911
41.525284,-74.27694
38.49069,-74.41728
40.149185,-72.27252
39.109665,-75.25603
38.578453,-72.59638
41.76902,-74.626045
41.891594,-73.040596
38.426605,-73.96989
41.000843,-75.290085
38.467567,-73.18786
39.85353,-75.89773
39.100975,-72.4461
38.36782,-72.61089
41.650097,-73.08142
38.883835,-75.96273
40.41439,-74.74689
38.93544,-73.18317
41.74656,-72.2698
40.28619,-74.270546
39.101593,-72.04633
41.94562,-73.865845
41.626102,-74.139725
39.120712,-73.69689
39.730003,-74.98385
38.906384,-73.0552
38.193497,-72.56124
38.435905,-74.216934
40.6992,-75.40118
41.96592,-75.04333
41.0428,-72.44461
41.044025,-72.252914
41.278908,-72.900314
39.89381,-74.04447
40.127872,-73.26109
39.159714,-74.798935
38.342346,-74.68696
40.20221,-72.372604
40.460064,-73.459114
39.553917,-75.81991
39.315086,-72.06673
41.584354,-73.99953
40.51933,-72.04724
40.832096,-74.10525
38.347816,-73.73839
38.117332,-74.34394
38.365574,-73.83015
40.027767,-74.3164
41.834755,-74.68099
41.570515,-75.6382
41.363106,-74.873566
39.90942,-74.40092
39.137688,-75.95886
40.680626,-74.59016
39.981533,-74.73919
40.230965,-74.85443
38.73885,-73.17105
40.398926,-75.30406
39.312553,-75.870255
41.612793,-72.49551
41.034286,-75.54884
39.885574,-75.545265
39.742535,-72.22335
41.822636,-75.4767
40.592434,-75.85769
39.420647,-74.42961
40.64688,-74.83184
40.932438,-73.189186
38.941105,-75.286736
41.421,-74.48965
40.02269,-75.45134
38.15944,-74.52638
39.809193,-73.41207
41.396523,-72.81569
38.652206,-74.777115
39.156742,-74.65607
40.23785,-73.09662
38.94894,-74.590996
41.690163,-74.93859
38.100647,-72.008804
39.089046,-75.8423
40.810867,-73.83637
39.49408,-73.065575
38.12908,-73.62412
39.217716,-74.63727
41.442337,-74.550545
39.067192,-73.686005
38.517498,-74.30455
40.937107,-72.74342
39.84647,-74.67885
39.65958,-74.55456
39.43555,-73.211205
40.395008,-72.14673
40.035686,-73.46385
40.873795,-73.226616
39.21008,-72.59313
41.092037,-72.54521
38.974125,-73.72749
39.047108,-74.28156
40.726727,-75.27634
40.01128,-72.7769
41.84173,-74.5056
39.7332,-73.564644
38.93477,-72.34683
41.691963,-75.492165
40.10978,-74.20167
38.782024,-72.156075
38.376595,-74.14587
40.06806,-74.65252
39.18734,-74.04772
41.817207,-72.9912
40.24542,-74.25391
41.006058,-74.09001
41.29246,-74.156555
41.836246,-73.14528
38.681763,-75.57364
38.214333,-75.88884
39.721737,-73.820244
41.209534,-72.76112
39.85136,-73.93071
41.559937,-73.75318
38.836037,-75.95638
39.529896,-73.43809
40.804058,-75.79479
41.81685,-72.80244
39.85012,-72.72424
40.56533,-74.61523
38.19542,-74.781876
39.482956,-73.38757
41.908012,-75.32942
39.993183,-72.071754
39.659702,-74.53235
39.541462,-74.54953
40.945885,-73.906296
40.644955,-74.13242
38.95498,-75.36821
38.905567,-72.642975
41.488438,-73.1142
39.66661,-74.505554
41.9581,-74.81607
40.77356,-72.426125
40.79451,-73.70373
38.300114,-75.89606
38.16931,-75.6414
40.234863,-75.56956
40.662067,-75.806206
39.917614,-73.62585
41.593422,-73.473
38.205704,-73.06444
41.722275,-74.07012
41.490574,-75.45876
39.696213,-73.40517
40.136406,-75.4128
38.19692,-74.01452
39.851833,-72.66691
41.592136,-73.14895
41.920692,-75.75993
41.86292,-75.090454
38.90947,-72.09038
38.70113,-73.36198
38.05047,-72.28123
38.36229,-74.93772
41.39701,-73.531906
38.8195,-73.72041
38.298042,-73.16329
41.015335,-75.195114
38.79539,-75.29309
39.88189,-74.10493
41.070847,-74.42126
40.939453,-75.9685
39.7378,-72.99841
40.648277,-75.956184
40.072132,-73.57183
41.545498,-73.68237
40.509384,-75.068375
38.132133,-73.41404
40.014336,-72.8337
38.37806,-73.53623
41.17948,-72.29277
39.7927,-73.288155
38.87006,-74.05459
41.785675,-73.15854
39.45494,-72.91995
38.346603,-75.21635
38.50901,-73.966125
40.05144,-72.297035
39.51876,-72.51782
38.510845,-74.5506
40.557358,-72.6456
40.384075,-74.50517
38.91914,-73.577255
40.071404,-72.56922
41.929417,-74.21553
40.563923,-74.780594
38.999786,-75.41817
38.378567,-75.54733
40.71971,-74.839584
39.05809,-75.982834
39.413074,-72.4237
41.702343,-72.02623
38.00683,-74.9757
38.063232,-74.6031
40.93351,-75.96752
40.838047,-72.30614
38.60877,-72.62453
40.204197,-75.080666
41.089645,-72.61419
39.93452,-75.744965
41.942665,-75.96365
41.511192,-75.35582
40.058456,-72.26247
40.724167,-75.879814
40.880203,-73.28556
40.81768,-74.72117
39.816887,-72.86615
41.166245,-72.696144
39.853203,-75.55943
38.865772,-72.27846
41.721123,-73.20693
39.971764,-75.553246
39.452133,-74.214355
41.17532,-74.42964
38.48492,-73.90861
38.56041,-73.33347
41.37374,-73.89379
39.127647,-72.826935
39.954044,-75.471855
41.706932,-72.31582
40.81202,-74.95857
39.734093,-74.0775
40.124714,-74.57353
41.46649,-73.08353
41.250286,-73.41797
38.204384,-75.24473
41.529728,-72.21437
41.92547,-75.458626
41.100185,-72.74568
38.69912,-72.80904
38.41668,-75.51389
40.906258,-73.01508
38.74691,-74.69012
39.54538,-75.24729
38.0685,-75.04085
40.96163,-74.15581
38.298058,-74.71547
41.713882,-72.76088
38.167328,-75.53285
39.826305,-73.047295
40.69693,-72.11255
41.50067,-73.92889
41.27847,-73.69826
41.950264,-74.889366
41.8493,-75.09572
38.125908,-72.183495
39.332054,-72.50838
41.820602,-72.05601
39.025997,-73.35439
40.356754,-75.00119
41.405674,-72.97814
40.485493,-74.57687
41.041897,-72.55534
41.281006,-75.57425
39.16219,-75.897675
41.026085,-72.23771
38.57523,-73.19382
39.00253,-74.47308
41.972565,-73.31766
38.679047,-74.26146
38.479362,-73.969406
41.2992,-75.43127
40.054447,-72.80585
40.894524,-72.0904
40.05252,-75.51442
40.17849,-72.880936
40.882946,-72.58195
41.821404,-73.22339
39.96919,-73.83036
41.785454,-75.23753
39.680878,-72.603165
38.54368,-75.37071
39.940174,-72.18995
40.2623,-75.17886
40.97149,-73.512314
40.848797,-74.37269
41.156673,-73.53993
38.928383,-74.28457
40.97749,-74.075264
40.390972,-74.38687
38.186913,-74.591896
40.543873,-74.39821
38.075966,-72.32457
40.819294,-74.78212
40.23218,-75.81595
38.439976,-73.945145
40.569603,-74.090645
39.77274,-72.98656
41.512474,-72.45421
41.943054,-74.185745
39.710293,-74.94189
40.600998,-74.2199
39.040073,-72.448586
38.789543,-72.00424
39.21214,-75.76998
40.252197,-73.599335
39.152874,-73.82961
38.1231,-72.329865
40.416542,-74.34649
41.975582,-73.541626
39.917343,-74.640335
38.184963,-74.65786
38.82288,-73.1414
41.319267,-75.69285
40.87446,-74.871826
38.952984,-74.38421
40.874035,-73.53472
39.360176,-73.8006
38.59012,-74.16404
39.754375,-74.7888
39.686905,-72.26631
40.18535,-72.00222
40.084885,-75.17809
41.27174,-73.49807
38.84363,-73.55969
38.35081,-73.93613
38.456154,-74.573524
38.38143,-72.12904
40.41029,-75.81997
40.37622,-75.892
41.86915,-73.426346
40.90792,-75.562996
41.025356,-73.14593
40.29055,-75.89901
40.58142,-74.70096
41.647247,-73.91788
40.201187,-73.11138
38.826134,-72.2101
40.778793,-73.04153
40.907307,-75.78485
41.907475,-73.36049
39.065342,-73.07369
40.73897,-73.67559
38.332146,-73.6653
40.05642,-72.52669
40.176277,-74.99299
38.202404,-74.62521
39.921997,-75.79086
40.685158,-75.8248
41.330845,-72.85643
41.818104,-73.698006
40.930374,-72.63002
40.431747,-72.38052
39.980675,-74.38165
38.14555,-74.88314
41.713993,-73.38095
40.32684,-73.95164
38.373234,-75.248795
38.932068,-75.80439
41.630856,-75.62143
41.97386,-73.15975
39.522728,-74.107544
41.24824,-74.78484
39.726418,-72.03265
41.866417,-75.69167
38.807198,-72.326
39.552364,-74.85521
38.217144,-75.73489
40.892303,-73.143875
39.94543,-75.90803
41.868088,-74.689896
39.675488,-72.26916
39.9994,-75.27386
40.314205,-72.43928
41.997765,-74.982574
39.33968,-73.62984
39.54939,-72.386536
40.398476,-74.23066
38.057243,-73.17504
40.116352,-73.99974
39.061134,-74.424126
39.624187,-72.01184
40.606205,-73.73075
39.613518,-75.95982
41.846256,-73.04247
41.90529,-75.58558
41.261284,-73.29663
39.935947,-73.94193
41.46524,-72.54673
40.94374,-72.78766
38.917686,-74.124115
39.994576,-72.56424
39.98323,-75.02432
39.65318,-75.90555
41.56812,-75.02276
38.725967,-73.23492
41.68038,-72.35257
40.034008,-73.392555
41.196243,-74.89706
41.887608,-75.03072
40.17252,-72.97364
39.409733,-72.272934
41.33509,-75.56946
40.989086,-73.353424
39.82348,-74.418976
38.141323,-75.066864
41.619183,-72.12003
40.438972,-74.23784
39.881485,-75.53045
38.7685,-72.37292
39.022366,-74.375275
40.131573,-73.43155
41.94751,-73.165184
40.983772,-72.42914
39.46167,-72.456314
39.467354,-73.487404
38.1845,-74.88583
38.9272,-72.032524
38.060753,-74.44869
39.19538,-73.10588
39.102016,-73.728065
38.996784,-75.13025
41.60481,-73.283646
39.485523,-72.83575
41.801643,-73.601776
41.701492,-74.20462
40.582066,-74.822716
38.282894,-75.98723
38.24444,-72.22227
38.040894,-73.2572
38.695324,-75.91535
39.266327,-75.233284
38.4022,-74.68278
39.477493,-73.75641
38.840176,-75.85102
39.627403,-75.870445
39.08041,-72.86929
38.774773,-74.34611
38.284992,-73.15511
40.40595,-72.08191
41.75126,-75.88354
38.806114,-75.42172
38.15083,-74.07998
38.262474,-74.791664
39.911118,-74.47992
39.896664,-74.86365
39.277912,-75.4199
41.33765,-72.819405
38.277412,-72.237045
39.34238,-75.27651
38.178425,-74.4311
39.2433,-73.042274
40.565884,-73.77412
41.45737,-72.01644
41.01379,-74.665375
40.249046,-74.14035
41.63972,-73.7876
38.832855,-75.09692
40.397816,-74.428
39.373203,-74.24909
39.498074,-72.02315
41.447887,-72.74764
41.31532,-72.34819
39.35608,-75.4629
38.87209,-72.51294
39.854267,-73.959236
38.559303,-74.20256
40.388367,-75.63008
39.122448,-74.49795
39.864815,-75.78019
38.82779,-72.65947
39.986813,-74.250755
40.683155,-75.42006
39.0065,-72.441284
41.984917,-73.01442
41.553955,-72.53495
38.472115,-75.20833
41.45669,-73.56603
39.979076,-73.26399
38.928158,-73.79976
41.489803,-75.79886
40.263035,-75.7844
38.52412,-72.018326
40.624752,-73.38004
41.253155,-74.41731
41.354347,-72.000786
39.888103,-72.77924
41.48867,-75.09848
39.762474,-73.61825
39.182014,-73.37551
40.99707,-74.013626
41.123375,-72.08695
40.375122,-75.41499
38.78843,-72.763084
39.549927,-73.228966
39.73053,-75.37208
38.260338,-75.04889
41.680984,-74.90867
41.953537,-73.91034
40.889313,-72.13406
41.035458,-74.03632
41.097195,-74.13812
38.625534,-74.70537
41.32385,-74.91896
40.734516,-72.09707
38.078545,-74.58539
38.57565,-72.64615
41.85177,-75.330605
41.436012,-73.40709
41.227726,-73.18464
40.164543,-74.47444
39.476387,-72.84953
38.677414,-74.33395
38.105896,-73.7132
38.552544,-74.28867
41.979565,-75.422424
39.20974,-75.40263
40.93367,-75.10486
40.588837,-73.758835
39.391876,-75.336395
38.696342,-75.70475
41.59156,-75.061745
38.755047,-73.057465
39.361134,-75.638985
40.63578,-75.30352
40.872643,-74.67661
39.26535,-74.43251
41.71,-74.9854
38.089527,-74.402115
40.522243,-73.33582
41.53858,-75.999985
39.36778,-72.29083
38.72092,-73.13265
39.806408,-73.60713
38.99609,-74.86173
40.38119,-74.93691
41.202637,-74.78797
41.18311,-73.12475
38.502323,-74.05612
40.853306,-73.527016
39.225708,-74.15813
38.10697,-72.66786
41.75348,-73.126564
41.429405,-74.30677
38.143932,-75.3485
40.080494,-72.68745
40.532787,-73.24537
38.34317,-73.36179
38.71321,-74.04623
41.7717,-72.46961
40.989243,-72.85747
38.055897,-74.57604
40.43623,-73.66631
40.350204,-74.93255
41.960007,-72.71131
38.16623,-72.08
39.698654,-75.149
40.15063,-75.737495
40.84485,-73.92116
38.537235,-73.53932
41.183716,-74.3944
40.354572,-73.95298
39.654327,-75.357574
39.48227,-73.13042
40.977985,-75.41064
39.588997,-74.944984
41.591732,-73.19029
40.370617,-72.4206
40.33178,-73.216156
39.171326,-72.47435
40.892033,-75.80975
40.158375,-73.61661
38.213516,-74.377205
40.188236,-72.166466
39.62936,-75.63124
41.11961,-72.76632
40.598034,-72.77583
40.677433,-72.57652
38.8179,-73.43762
40.44735,-72.49453
38.854794,-75.79398
39.888485,-73.00771
39.36927,-74.94429
41.41349,-74.72491
40.65253,-73.56388
38.93106,-73.0478
39.332775,-73.172005
38.42123,-75.586235
40.47278,-73.27484
39.07574,-75.47358
39.333244,-73.99083
40.553223,-75.322075
41.12545,-73.74146
40.554733,-73.73098
40.234352,-75.85074
40.11305,-75.51923
38.585484,-72.52799
39.916824,-73.63232
39.79371,-74.24165
38.177303,-72.341446
40.02023,-74.888535
40.82286,-74.2208
40.439224,-74.828064
40.31999,-75.700676
39.053204,-74.622536
39.62523,-74.93592
40.284496,-74.48097
40.440506,-74.41972
39.110405,-73.659935
39.15669,-73.27203
38.11439,-74.58176
39.021046,-74.435814
39.121437,-75.78013
41.86101,-73.05588
40.31009,-74.00038
38.15872,-72.965836
39.898163,-74.333755
40.729923,-74.277664
41.546284,-74.05249
39.362293,-72.30023
38.189648,-74.17621
39.467846,-73.09358
41.581474,-74.51716
41.372944,-74.51345
40.712814,-72.236496
39.88799,-73.176506
41.575478,-72.44976
38.16292,-72.874985
40.383972,-73.2351
38.750347,-73.02502
39.10675,-74.05137
39.78564,-75.1162
39.527298,-73.02919
38.084206,-72.14966
39.4252,-74.25872
40.895145,-73.95421
40.01201,-73.90336
40.49482,-72.2388
41.46458,-72.99604
39.52249,-73.39501
40.070786,-75.8391
38.035885,-73.465096
40.751778,-73.182274
38.091114,-73.33454
41.97782,-75.38581
41.93653,-73.027214
41.588623,-75.61482
39.67273,-73.84692
39.81559,-75.22118
40.803555,-74.829926
39.745102,-73.75294
41.12994,-72.29568
38.235264,-74.82858
40.87664,-75.889465
40.39111,-73.20158
41.061157,-75.02468
39.416454,-75.93379
41.496384,-74.609474
38.107296,-72.34866
40.358006,-74.88143
38.357765,-75.433556
40.15191,-72.50652
38.553608,-74.136086
40.704994,-72.19673
38.180367,-73.51294
40.306965,-74.27278
40.73767,-74.34716
41.495605,-72.09077
41.302685,-75.488556
39.66034,-75.24704
40.813194,-73.07053
38.408646,-75.09657
41.14498,-72.62953
38.578564,-72.42375
38.9521,-75.15299
41.28313,-75.0881
40.44839,-73.79772
40.14581,-73.06361
38.07209,-74.48082
38.949547,-72.37127
40.34387,-74.21395
38.607964,-75.77737
41.06495,-75.831825
40.319866,-72.54222
38.98214,-73.996376
39.94491,-74.63877
41.658894,-72.817375
38.308193,-73.33828
41.83661,-73.332344
38.887028,-75.44036
39.161686,-75.08628
40.04852,-74.20331
41.716953,-73.23478
38.899025,-74.64021
41.069584,-74.48959
39.39548,-72.6599
39.081917,-72.79893
41.486122,-75.8557
41.890266,-74.30767
39.838665,-73.82733
38.41553,-75.715225
40.634846,-73.94437
41.516373,-73.91849
39.730488,-74.54498
38.231915,-72.50889
41.282475,-74.770256
40.099464,-75.43807
39.122158,-75.55725
38.699394,-74.56667
41.416412,-75.68799
38.61251,-74.89178
38.521843,-72.08696
41.925674,-73.475975
39.736683,-75.585075
41.152264,-74.37704
38.53368,-74.87034
39.62136,-72.541504
38.771812,-74.006966
40.521263,-75.45584
39.60573,-72.34785
39.160133,-74.559395
38.920387,-72.44755
40.74237,-75.667404
39.009567,-72.20111
39.979454,-75.01861
38.09764,-75.3217
40.897068,-73.578926
39.693768,-72.7974
41.816566,-74.86425
40.49833,-75.4449
38.04209,-73.1945
38.797962,-72.349106
40.450417,-75.797264
40.44442,-75.02857
38.947098,-73.81996
40.383793,-73.716866
41.420647,-73.799934
39.367863,-74.258446
41.009583,-72.63318
41.333527,-73.78096
41.62092,-75.16618
39.686005,-75.45676
39.94127,-74.2374
39.386715,-74.176765
40.71432,-75.7809
38.65906,-73.6378
41.683693,-74.37695
39.929726,-74.936195
40.99459,-72.732025
38.27616,-73.94978
38.498894,-75.77233
41.42256,-74.19799
39.617554,-73.5541
41.79855,-73.05465
38.29442,-74.68384
38.241905,-75.645996
39.053017,-72.4919
39.79544,-72.93122
39.980064,-75.34047
38.23884,-72.70559
40.1581,-75.1375
38.3402,-73.895226
38.017235,-73.77295
38.45423,-74.77438
41.44881,-72.634
41.491436,-74.81392
40.309864,-74.867134
40.204338,-73.884735
39.947407,-74.35408
41.265736,-72.55107
39.19928,-74.60652
38.143627,-72.191246
41.408897,-75.55107
39.015606,-75.61207
41.563618,-73.49977
38.931484,-73.54809
40.780807,-75.94569
38.458527,-72.7673
40.885647,-75.091545
41.773834,-74.186455
39.426113,-72.55068
40.55972,-74.11556
41.641224,-73.23237
41.3804,-72.124084
39.940063,-73.25105
38.05352,-73.6079
40.4738,-75.435486
41.772747,-72.43456
38.317276,-72.74709
40.595116,-72.48595
41.35871,-75.17606
40.89779,-75.87534
40.77648,-75.43239
40.366554,-72.397194
41.324314,-73.39043
41.146103,-73.619415
40.725826,-72.61877
40.41785,-75.13342
41.285183,-74.71038
39.643703,-74.95681
40.152634,-72.23501
38.10615,-72.99715
41.156044,-75.11999
38.580677,-75.828026
41.14717,-73.71607
39.70289,-75.73421
41.653233,-74.74947
41.859455,-73.92275
39.32084,-75.26421
39.57089,-72.77969
41.053837,-72.42346
41.99012,-74.82313
41.55488,-75.00352
40.270454,-73.24761
39.670982,-75.35773
38.429653,-73.29216
41.81659,-73.76392
38.53548,-72.65345
39.916904,-72.051476
41.45652,-74.30374
40.705784,-73.320854
40.26764,-72.79236
39.56384,-72.94905
40.19159,-75.781906
38.94492,-73.88137
39.528748,-73.50433
40.176003,-73.847595
41.520866,-73.26321
40.20224,-72.44747
41.96847,-74.24126
39.674133,-73.304405
38.445057,-73.8169
40.43799,-73.40228
40.20651,-73.40932
39.60755,-73.45021
41.775517,-74.553955
39.389503,-72.25442
41.395462,-74.393906
41.94672,-73.641685
40.115715,-73.92686
40.861874,-74.940865
41.522602,-74.982765
41.072784,-72.28914
39.711758,-73.76843
40.166496,-72.42848
40.965836,-75.58653
38.128723,-75.972534
38.02518,-72.63876
41.3508,-75.56903
41.401104,-75.21473
41.010075,-72.61123
38.775658,-74.545616
39.78802,-72.25263
39.365562,-72.59854
40.011482,-72.98043
41.720882,-73.47471
39.246864,-73.86916
40.61292,-73.16055
38.508556,-74.26944
41.585278,-75.41239
38.736526,-74.92722
41.854256,-72.715034
38.04288,-74.654305
39.318916,-73.66423
39.2234,-74.39488
38.55981,-73.84114
39.791195,-73.00968
41.26238,-72.26926
39.741604,-75.91641
39.204132,-74.80472
41.63817,-74.91222
41.812912,-72.18064
40.470123,-72.524124
41.66906,-73.713356
41.935368,-74.98989
40.831768,-75.62963
39.02531,-73.804
40.476124,-72.27256
39.517357,-72.44938
38.302105,-73.71075
39.51815,-73.68895
40.101807,-72.0698
40.65914,-73.26557
39.64139,-72.72228
39.851444,-73.14325
41.83629,-75.7466
39.397408,-75.04489
39.59176,-74.16725
41.283066,-75.96641
41.47828,-75.72746
40.00136,-74.976364
38.756313,-75.56608
39.45689,-75.784935
38.615578,-74.358215
39.367218,-75.56165
40.618954,-72.353264
39.904106,-72.014854
39.32296,-75.36451
38.723625,-74.96783
38.27967,-75.1266
41.44318,-72.16806
40.816208,-73.47535
40.273666,-74.87368
41.157017,-75.38831
39.957615,-73.34017
38.93287,-74.86469
41.262344,-74.58298
40.553783,-72.66389
38.7064,-75.05758
41.267635,-73.74793
41.446686,-73.955376
41.251587,-72.505165
41.622894,-74.8761
40.372044,-74.028694
38.058952,-75.35781
38.19451,-74.38068
40.983513,-73.21352
38.63534,-75.32491
39.091656,-72.36697
40.84153,-74.826904
38.378582,-72.86322
39.2954,-72.01173
41.09644,-72.35528
38.91197,-74.48067
38.093296,-73.47587
38.48551,-74.10238
39.677086,-73.370636
38.017754,-73.73359
40.807655,-72.010895
39.305035,-73.846924
41.47027,-74.872116
40.070763,-74.74592
38.94996,-74.74963
40.60877,-75.862
41.64584,-74.91153
41.373135,-73.42789
41.08921,-72.926476
38.54213,-73.41373
40.82189,-73.25275
38.942856,-75.74306
39.427624,-72.37441
41.806026,-73.1592
39.77793,-72.69827
40.896595,-72.30909
41.755146,-73.796326
38.217583,-73.21074
41.462902,-73.54484
41.606155,-73.76744
41.153725,-74.36282
40.339676,-72.82057
39.533077,-72.61708
38.864525,-74.764786
41.289833,-75.302826
41.784485,-72.29241
41.017998,-72.73072
38.44203,-72.63472
40.3095,-73.99227
41.25313,-72.90965
41.701115,-72.7141
39.182613,-73.989716
38.150963,-72.7619
38.455566,-72.72889
38.414867,-74.269135
39.18477,-74.429245
38.51571,-74.23428
38.76195,-75.02068
38.688385,-73.980194
38.63126,-73.44103
39.78964,-74.46538
41.768723,-73.948456
39.049137,-74.68168
41.476208,-72.31862
40.881645,-74.50596
40.919586,-72.75961
40.768253,-74.172554
40.467693,-73.539444
40.24788,-72.2125
38.903793,-75.32193
39.95246,-74.91823
39.878605,-75.54373
39.295635,-73.22773
38.76093,-72.27165
39.623844,-73.90765
39.837868,-73.225586
38.91161,-73.01509
39.45366,-74.34831
40.791958,-73.2359
39.29887,-75.693794
40.035088,-74.67195
39.126755,-75.67497
41.51114,-75.25968
39.451313,-74.980965
41.99733,-75.96064
41.352825,-74.801216
39.52901,-75.325714
41.777317,-74.375595
39.774284,-75.58661
41.372227,-73.259636
39.370594,-72.09912
38.972084,-72.92292
41.350525,-73.21772
40.666588,-74.19532
40.565674,-72.4215
40.59404,-75.38643
39.06797,-74.07852
39.16251,-73.3114
38.215313,-74.40553
38.578827,-74.582886
38.133984,-73.16815
40.943924,-74.93225
40.20672,-73.12532
40.646038,-75.5001
39.3889,-74.24054
41.558723,-73.41959
41.123997,-75.78921
38.14724,-73.97742
39.984127,-74.6502
38.83725,-74.48532
39.265484,-73.68384
41.048203,-74.975296
38.797493,-75.0069
40.597267,-72.12848
40.16676,-72.45588
38.507908,-72.58128
41.21348,-72.297264
39.692112,-72.98241
41.641663,-74.44998
40.911343,-75.89576
38.321655,-74.721275
41.565678,-74.79159
41.591892,-72.84892
40.232742,-75.81207
40.637413,-75.95639
41.81,-75.5465
38.69912,-73.2643
38.2503,-75.45163
40.124973,-73.901886
41.17817,-74.4882
39.601765,-72.20341
40.403095,-75.63563
40.603275,-74.17099
41.08738,-73.753044
40.271896,-73.490326
40.975338,-72.27132
39.54131,-73.68793
39.853935,-75.86152
38.04598,-73.24646
40.81269,-72.901665
39.800037,-74.712166
40.734055,-73.56374
38.126514,-75.438446
41.9199,-74.91331
38.054035,-74.45182
39.301365,-72.737854
40.35984,-73.27815
38.058487,-72.01909
41.426594,-74.14296
39.774014,-72.09597
40.70869,-74.91249
38.85787,-72.6272
41.29793,-74.061615
41.611298,-73.386154
41.07636,-72.86744
38.972626,-75.5802
39.29683,-75.39994
39.031868,-72.58727
39.002617,-75.61357
41.46346,-75.49346
39.161926,-72.27788
39.062424,-74.27731
41.239822,-72.39742
41.848537,-73.54325
41.45955,-75.37656
40.308014,-73.91432
40.330894,-73.1354
40.166855,-74.05122
38.0708,-74.7695
40.841984,-74.202614
39.04915,-73.69441
40.9144,-72.58282
39.91147,-75.492485
39.445644,-74.02568
39.92329,-75.2856
40.858734,-75.52343
40.523952,-73.232796
39.88487,-75.61064
40.059063,-74.97502
40.50699,-74.21713
39.98133,-75.23351
38.992702,-73.647766
41.08241,-74.4673
38.39677,-72.74883
39.969395,-73.09818
40.03425,-75.022156
40.267273,-74.34584
38.399155,-73.32202
39.96327,-75.6462
39.161983,-73.62337
39.774387,-74.85537
38.8673,-72.93011
40.091045,-75.30896
40.72686,-75.38212
40.415768,-72.0899
38.73392,-75.64062
40.577587,-74.77179
38.792397,-74.24213
38.472813,-72.10177
41.555206,-72.307556
40.587513,-73.65643
41.4061,-72.20843
38.83433,-72.97442
40.01846,-75.898315
40.837063,-72.0037
39.014626,-75.922325
39.083897,-74.304276
40.575195,-73.86765
40.520435,-72.15584
40.86598,-72.39662
39.15444,-72.81415
40.630947,-73.13231
41.896866,-73.35292
39.324226,-75.603355
41.781094,-75.97305
39.117588,-72.19594
39.310535,-73.94738
39.729156,-75.53998
38.221634,-72.52473
41.29354,-74.84516
41.466263,-72.60583
40.76534,-72.2083
41.57726,-75.72934
38.261703,-72.583565
40.459496,-72.20684
39.26212,-74.624374
40.534485,-73.90037
40.964504,-72.59165
38.360214,-74.358635
39.9281,-73.53589
39.462498,-75.47079
39.310028,-74.49682
40.0758,-72.55001
38.730625,-75.95726
38.538338,-74.35033
39.60266,-74.6084
39.76899,-75.912994
38.462933,-75.941345
41.93578,-73.7376
39.59625,-72.519165
39.28265,-75.4155
38.49857,-73.190125
39.101875,-72.82844
38.257294,-72.09554
40.823914,-72.01697
41.814762,-75.16536
39.758526,-73.0141
38.720276,-74.87497
40.58609,-73.91006
41.073395,-73.2939
41.504704,-74.1902
39.9366,-74.75995
39.037388,-73.435936
41.880383,-73.670715
41.758186,-75.699875
41.163418,-74.64444
41.281452,-73.60106
39.30114,-75.34658
41.264008,-74.21164
39.707836,-74.229225
39.19531,-73.33763
39.291992,-72.84574
40.510044,-74.48506
38.236794,-75.77912
41.976273,-75.740265
41.91428,-73.99246
39.128498,-74.50454
41.48228,-72.94596
41.28,-74.47581
38.0301,-73.4342
39.72529,-73.86397
41.31612,-75.02723
41.30777,-72.40344
39.635475,-74.43239
39.567654,-75.56215
39.93814,-75.1516
41.00178,-73.15684
38.06892,-74.55077
38.17352,-74.52157
39.315998,-75.87838
40.93305,-73.03006
40.04036,-72.80445
40.084515,-75.16998
39.03451,-75.569275
41.51732,-74.97368
40.757313,-72.64173
41.967793,-75.327156
38.35685,-73.63685
41.870106,-72.84757
40.38246,-74.814316
41.68003,-74.41593
39.569527,-72.39495
39.912846,-72.29149
38.638493,-72.74988
38.040363,-74.669525
38.577568,-73.732994
38.267822,-72.66454
40.58345,-72.474815
39.7972,-72.53413
41.235847,-74.20635
41.030434,-72.4694
38.411564,-75.4435
38.637203,-75.86813
40.04709,-72.382
39.68302,-74.517075
39.59176,-73.81393
40.073013,-74.81696
41.62655,-73.39895
40.21537,-72.8027
38.73802,-73.76833
39.659447,-72.39448
38.72792,-75.6995
41.94271,-72.65288
39.31274,-75.410736
40.22643,-72.829506
39.6446,-73.758446
41.562828,-73.16984
41.596355,-73.58228
40.679897,-75.63827
38.444836,-72.3832
39.66971,-74.337364
41.31349,-74.61858
40.41045,-75.160904
39.76904,-74.779106
39.24192,-72.36872
40.887886,-73.63191
39.462685,-74.95255
41.8118,-74.07026
38.549664,-75.9661
38.50547,-73.334854
41.356407,-73.9469
38.63093,-74.33728
38.47527,-73.12647
40.99691,-72.73034
38.814266,-74.712296
40.070255,-72.47939
38.41769,-74.96811
41.008003,-72.17683
38.63864,-75.39806
40.35231,-74.32959
41.752228,-75.76727
39.00836,-74.39584
40.59379,-72.12081
38.79197,-73.447365
39.24271,-72.984215
40.395824,-72.92281
38.38766,-73.56799
40.101128,-72.88501
38.853855,-75.52242
41.286045,-74.310486
38.711044,-74.49831
41.399437,-74.96911
39.087605,-72.80504
41.5338,-74.07815
40.779892,-73.59581
40.31545,-73.76039
40.267788,-73.46719
38.11457,-74.95819
39.940105,-73.78701
41.457085,-75.35089
38.123344,-74.552734
40.201893,-75.42523
38.632202,-73.6575
41.04993,-74.52861
38.57115,-74.06875
41.108185,-74.801674
38.37671,-75.00721
39.686325,-72.58589
39.775177,-75.59116
41.713577,-74.41712
39.429237,-73.86029
38.897747,-74.1689
39.359573,-73.32949
41.089523,-74.357544
38.36763,-74.39863
38.657623,-75.06157
41.07903,-73.648575
40.730766,-72.274
40.11179,-75.31456
41.94107,-75.66861
40.3005,-72.510254
41.1415,-72.52893
41.740044,-73.98145
41.11271,-74.70817
41.326252,-75.63738
39.478394,-74.6419
40.95425,-75.617584
41.183254,-74.24583
41.888885,-75.41776
40.535362,-73.55516
40.159103,-74.2714
38.869987,-72.69781
39.074806,-73.65532
38.561787,-74.67302
41.859314,-73.98355
39.915844,-72.80222
38.48341,-74.240555
38.23816,-75.937614
38.441795,-73.88325
40.266396,-74.80343
40.605015,-72.652374
39.589947,-73.38712
41.39802,-74.25418
39.473473,-73.2155
39.201324,-75.918015
41.70263,-73.701416
39.655235,-75.75714
41.088707,-72.527084
39.898056,-73.24786
39.807865,-75.17324
39.92332,-73.02431
40.82989,-75.080826
41.250088,-72.02659
39.642715,-75.35209
39.827488,-74.742065
40.94748,-73.10684
39.215267,-72.182
39.940998,-75.29117
41.08521,-75.11688
38.48814,-72.51058
39.273872,-74.16782
38.497765,-72.88669
41.099087,-72.27094
40.04678,-72.51175
40.356384,-73.88643
39.455,-75.23212
39.075645,-73.64166
40.11805,-74.60186
39.293106,-75.842445
39.28862,-72.21879
41.143337,-74.86154
40.30274,-72.53421
41.674904,-73.65796
38.433918,-72.79779
39.931274,-74.872055
38.39418,-74.181076
38.815136,-72.79489
40.568638,-75.37657
41.68354,-72.17781
39.764145,-74.08914
40.928604,-75.919975
38.27985,-72.75744
38.22219,-75.174416
38.48734,-72.43503
39.694176,-72.81266
38.172844,-75.8336
39.935295,-73.38579
38.288155,-73.82929
41.043446,-74.05589
38.437336,-74.9421
39.45478,-72.22424
41.662754,-74.03782
41.318657,-72.96495
41.468266,-75.33146
39.80192,-75.53863
41.424248,-74.18613
40.868874,-73.29895
39.345467,-75.63552
39.516808,-75.74361
38.4381,-74.38297
38.70406,-73.26477
38.808647,-73.553696
40.651237,-72.72503
38.459568,-75.945564
38.002743,-73.162834
38.82095,-73.121025
41.492867,-73.99417
41.754433,-75.53023
39.069424,-74.7391
41.896618,-73.01056
38.501717,-73.71548
39.57877,-73.46803
39.763935,-72.89742
38.07516,-75.243805
39.178318,-75.26024
39.613213,-74.47621
39.4756,-72.89133
39.756462,-72.49366
39.446236,-74.840645
38.09146,-75.66223
39.390793,-74.45404
38.568417,-73.84798
41.619827,-74.55614
39.632504,-74.35853
41.103424,-72.54044
38.020588,-73.46023
38.141453,-73.83637
40.680458,-74.82186
39.543518,-72.44463
39.90446,-73.94775
38.010654,-74.79234
38.97549,-72.20255
40.749878,-73.02127
40.232895,-74.70606
39.191013,-73.38957
41.62384,-72.434784
38.188663,-75.57919
41.96842,-72.49206
39.2688,-74.63475
38.10442,-75.8203
41.120403,-75.73018
40.87204,-73.68672
40.25067,-74.119385
41.944084,-74.07399
40.943806,-75.065865
39.51123,-72.5822
41.626125,-74.2914
41.81315,-73.47082
38.495495,-73.00063
40.797867,-75.846344
40.683464,-75.7281
39.437267,-72.479744
40.960567,-74.458
38.383804,-74.00156
38.556606,-73.461075
39.99133,-74.891396
39.349674,-72.29297
40.82401,-72.31327
40.593044,-72.05607
40.535545,-72.9422
40.424084,-74.43272
39.62389,-75.91709
40.371807,-74.67817
41.57345,-73.30898
38.50098,-72.68269
38.119865,-73.322136
40.06334,-72.77504
41.956017,-74.09397
40.747047,-72.98512
38.598904,-74.61179
41.81171,-72.288124
40.125774,-73.04126
40.369114,-73.6318
39.14504,-75.721565
41.432606,-75.454346
39.08906,-72.22202
41.536484,-72.52276
39.40777,-74.10748
38.959064,-74.28788
38.524406,-74.29664
41.92033,-75.02741
39.819347,-73.92693
38.43005,-74.734215
39.079334,-72.20816
41.4113,-72.34452
41.74492,-74.53744
41.80529,-75.265724
41.177483,-73.782616
40.877247,-74.47211
40.631607,-74.67763
41.003113,-74.34069
41.552505,-75.20759
38.74886,-75.98852
38.42958,-74.128044
41.79619,-73.67479
39.244705,-74.73189
41.77165,-74.810356
41.390213,-74.95809
41.663567,-74.67642
38.940857,-72.17488
39.438587,-73.93317
38.803474,-75.6491
38.685444,-73.67479
39.30732,-74.95551
41.41846,-73.875374
41.318714,-73.44204
38.180527,-75.72178
41.360897,-75.34673
39.72079,-73.135925
38.200035,-75.19186
40.024162,-74.77612
38.941647,-72.532585
40.388947,-75.44088
39.19948,-72.8193
40.448505,-73.980675
39.996117,-74.79087
41.188828,-75.894104
38.688293,-74.13439
39.61451,-75.52094
41.649315,-75.74576
40.061356,-75.36199
41.26857,-73.364525
38.358643,-75.2054
39.937958,-74.13052
40.032707,-73.51202
39.29455,-74.15361
38.255558,-72.435394
40.59729,-74.871956
41.827038,-75.88976
41.565,-73.10732
40.50126,-75.634895
38.438198,-74.55377
41.60228,-75.258934
38.90496,-74.14324
39.10954,-74.48752
41.62087,-72.437744
38.030228,-72.14363
40.43741,-72.96296
38.527794,-75.48084
41.52583,-75.21719
40.368134,-72.10215
40.052124,-74.897194
39.016544,-72.2851
40.942703,-75.5486
41.21958,-73.72622
39.91138,-72.18321
41.000324,-75.39592
40.941525,-73.1532
38.358334,-73.69962
38.78887,-72.41771
38.08586,-72.24794
38.061047,-72.9016
39.28963,-75.46487
39.620453,-74.48668
41.556736,-73.658615
38.342926,-72.790375
40.14908,-72.13646
38.8523,-75.70763
38.892036,-72.988785
41.260303,-74.09082
41.09022,-74.264206
38.003983,-72.22782
39.219715,-72.80894
40.733738,-74.19623
39.487484,-72.88971
41.32124,-75.90612
39.603794,-72.13747
40.19701,-75.81478
38.082127,-72.05424
40.474976,-74.96428
41.67763,-75.46951
40.06988,-72.15177
41.624527,-72.50578
41.970257,-72.627396
38.37396,-74.84245
41.01438,-74.59544
40.616894,-75.8182
41.261032,-75.781715
39.36551,-72.08624
38.99573,-73.16721
38.436363,-73.4749
41.523285,-74.36155
39.318466,-74.184326
40.43857,-72.61798
40.41912,-72.684685
38.621487,-75.73564
39.17414,-74.32313
41.66364,-72.54821
38.412064,-73.786934
39.010075,-72.797134
39.41264,-72.735435
40.309696,-74.300865
39.849213,-73.06831
40.14391,-73.76949
39.61552,-74.84542
41.5898,-72.622025
38.58595,-75.653015
39.428516,-73.92471
40.632782,-73.50023
41.00087,-74.20544
41.524822,-73.84335
39.82307,-72.46848
38.272682,-73.22566
39.49967,-74.232994
38.49263,-72.87732
39.916042,-75.78073
40.67132,-75.470535
41.17823,-75.894585
40.879013,-72.534744
41.625515,-73.00844
39.362103,-74.70686
41.11593,-72.616615
41.222866,-75.36332
39.63314,-73.69125
40.55349,-72.03023
40.355198,-72.34963
41.233356,-74.51074
41.24283,-75.65916
38.23677,-75.55719
41.842297,-75.7617
39.658398,-72.23899
39.562172,-72.87473
40.48381,-73.44362
41.694054,-73.55508
39.96401,-74.16169
38.736782,-73.20154
40.658062,-75.75068
38.29615,-74.36997
38.963837,-74.085236
39.424606,-75.26335
40.250393,-73.66198
41.50791,-73.86033
39.338963,-74.04927
39.779438,-75.61791
39.664524,-74.70819
39.643173,-75.522354
39.413773,-73.752
39.919777,-74.4022
41.51524,-72.68254
40.916317,-74.72801
40.604557,-73.01054
40.191322,-75.41495
41.86572,-72.833015
40.68712,-75.161514
40.633224,-72.2464
39.48828,-75.285736
38.318672,-72.694374
40.107487,-73.47803
40.89936,-73.2012
41.480865,-73.93849
39.98925,-72.5756
39.667854,-75.499916
41.329517,-75.177216
39.803207,-74.99088
39.125957,-73.245476
40.660378,-75.63691
41.573597,-75.0625
38.088158,-72.03975
41.509064,-75.76165
40.720734,-72.462746
41.593754,-72.24017
39.192223,-74.966095
40.744343,-73.66553
38.37971,-75.50175
41.492203,-72.19596
38.036175,-75.45211
40.1832,-72.918076
41.95052,-73.2752
39.850002,-75.22841
38.19371,-74.83583
39.438545,-73.97859
38.09703,-72.5281
41.89966,-73.1306
39.692627,-72.23811
38.32907,-75.33108
39.072906,-75.30336
41.53029,-73.0524
38.450096,-72.579796
41.57285,-72.540184
38.89098,-74.15123
38.42469,-75.96677
40.34549,-74.6658
40.66443,-75.5708
39.5768,-72.258156
41.553577,-73.25383
41.141396,-74.9463
41.107967,-73.63312
39.179874,-74.650116
40.803024,-72.88104
41.2954,-72.87388
41.542114,-73.21691
39.360485,-72.87173
39.686794,-74.49768
40.16223,-72.95907
40.28074,-73.25643
40.139732,-74.66349
41.89626,-72.476715
39.168037,-74.68516
40.406765,-73.5195
38.79476,-72.15553
40.86609,-73.527054
38.245346,-72.377075
38.794823,-74.341805
38.90083,-72.96743
38.58501,-74.96393
38.14958,-72.92744
41.301514,-73.729645
40.16626,-74.3497
41.556396,-73.06491
39.234776,-75.96647
41.85051,-73.63187
39.976006,-73.12373
40.11446,-74.15419
38.848373,-72.62144
41.252934,-74.833984
41.453957,-73.67286
40.227486,-72.147285
38.711834,-73.44423
38.34175,-73.45472
38.373722,-74.608574
40.47039,-75.25337
40.48599,-73.39501
41.36221,-75.427826
38.392113,-73.981865
39.024563,-75.372246
40.176975,-73.952805
41.54857,-74.62908
40.849113,-73.0307
40.363907,-72.43769
38.120693,-73.48303
39.43079,-75.46094
39.772667,-75.4509
40.711586,-72.54898
40.990696,-74.925125
41.652943,-73.734436
40.746056,-73.04865
41.402897,-73.19702
41.606552,-72.67237
39.94856,-72.5906
41.9403,-75.3791
41.96542,-75.231445
41.27661,-72.19937
40.406303,-74.98053
38.883457,-72.596306
40.02838,-75.42995
39.991264,-74.55133
38.272682,-72.87617
41.433224,-73.236374
41.098938,-75.620865
41.989788,-75.24289
39.27678,-73.910614
39.938858,-72.02617
41.793903,-74.27487
40.055794,-75.422844
40.825268,-72.5496
41.722855,-73.056526
39.291195,-72.32156
39.353516,-74.3446
41.40428,-73.172806
38.78245,-72.779724
41.566044,-74.661545
40.699024,-74.240944
40.137928,-74.59622
39.005486,-75.28718
39.402832,-74.43435
39.86759,-73.635254
40.691597,-73.59393
40.21469,-73.19432
40.2242,-72.567535
41.870472,-72.929726
40.57142,-74.88025
40.999092,-73.2059
39.45478,-74.47204
41.091263,-74.79504
40.359585,-74.790245
40.56058,-72.055824
41.437786,-74.96378
39.75425,-75.444305
39.53843,-75.5493
41.6984,-72.01185
38.848434,-75.58127
40.40396,-75.30772
40.29459,-74.54939
40.57376,-73.50659
41.098904,-75.433846
40.907345,-72.93308
38.05767,-74.4524
40.041286,-75.70229
40.405415,-73.555145
38.946938,-72.120804
41.516266,-75.21796
40.103577,-73.91795
38.9887,-73.45101
41.055397,-73.36067
39.46741,-74.30568
39.439743,-73.84349
40.30501,-73.12104
40.948944,-72.57116
41.093822,-72.32903
41.97816,-74.33675
39.255474,-72.29784
39.249054,-72.95093
40.126534,-74.340385
38.128418,-75.34516
38.997498,-72.98784
41.639053,-73.43528
39.838932,-75.70416
41.55674,-73.115135
39.28267,-73.612305
39.084045,-73.80944
40.931282,-74.16735
41.283936,-75.34805
39.171337,-73.137184
41.949787,-75.96377
38.103355,-72.26398
39.40424,-72.33321
39.52489,-73.54513
41.688126,-75.08476
41.475803,-74.59242
38.868088,-72.33386
41.852535,-72.842926
41.213615,-75.75927
40.00943,-74.78199
39.541344,-74.62364
39.890083,-72.51249
40.17796,-72.02792
39.68461,-75.117195
38.148018,-75.566986
40.714165,-74.90323
40.056026,-73.357346
39.441536,-75.81588
40.723095,-74.00783
41.245934,-73.528625
38.289116,-72.309456
40.745102,-74.859406
40.846542,-73.97743
39.674202,-74.569695
38.688244,-74.36952
38.126694,-73.05059
41.19921,-75.3529
39.6287,-75.1026
40.882286,-73.95341
40.168243,-74.627396
39.87573,-72.59424
39.859875,-74.657936
40.80271,-75.04804
39.132374,-75.287735
38.409195,-72.05894
41.732567,-75.68368
41.02885,-72.2476
38.80556,-72.883026
39.606823,-73.63885
39.01652,-75.32383
38.274506,-72.13159
40.10969,-73.315605
38.06539,-74.58579
39.2576,-73.63965
41.37889,-73.98966
40.650543,-75.327324
40.629723,-74.38771
39.439217,-73.990005
40.87177,-74.831406
39.610065,-74.8941
40.077118,-73.4289
40.694504,-73.75251
40.514835,-72.42811
41.25261,-72.843376
38.955032,-72.913605
41.505188,-73.90677
40.178307,-75.81713
38.80351,-74.089096
41.76896,-75.1534
40.124275,-74.21582
39.99379,-75.257805
39.57174,-73.53073
38.611904,-75.81497
40.885193,-74.83203
41.93147,-73.06183
41.926632,-72.19058
39.84642,-73.09599
39.610847,-75.11815
40.781742,-73.02933
39.101902,-73.56578
41.594738,-73.04266
40.511997,-74.31439
41.97843,-73.405495
39.788544,-74.44878
41.561954,-73.34397
38.76488,-72.39701
38.782722,-74.33148
41.091423,-74.62237
40.111885,-75.933464
41.384037,-75.06395
38.05403,-75.6964
41.66269,-73.86288
40.53463,-75.60059
38.05686,-72.247604
38.166054,-73.106384
41.68837,-74.58715
41.089497,-73.5598
41.282417,-72.8951
38.58322,-74.36978
41.892845,-72.256615
41.676426,-75.54643
39.457542,-75.970764
38.19485,-72.45652
41.83915,-73.30395
41.883587,-73.504974
39.47937,-74.72576
38.711357,-75.32307
40.541325,-75.87503
40.67837,-74.30585
40.98391,-72.244514
38.25882,-72.30305
39.768375,-74.08159
41.15351,-72.173325
38.516277,-75.11731
38.765347,-74.94719
38.407562,-73.73689
40.50962,-75.62815
38.72884,-72.80356
38.814583,-75.25489
40.86818,-72.699486
41.849934,-74.744606
39.129433,-74.83973
41.348877,-72.17322
39.745144,-73.97711
40.382595,-74.39265
38.952454,-74.51112
40.936543,-72.04783
40.82504,-72.645454
40.270397,-75.88216
41.401577,-75.946236
40.274742,-74.39379
41.005524,-72.41351
41.637295,-75.04713
39.813416,-73.80749
40.181515,-74.913055
38.812336,-72.32003
40.135696,-75.30398
38.21746,-74.84183
39.53753,-73.11865
40.936382,-74.572334
39.997955,-73.589005
39.31823,-74.51963
39.47018,-74.23457
38.57664,-72.941765
39.640076,-73.32631
40.101425,-73.83011
41.529633,-72.22369
40.36294,-75.40683
38.655125,-75.69857
39.066677,-73.01631
38.688507,-72.85472
40.245995,-74.887764
40.428463,-74.48894
39.515205,-74.6227
40.703865,-74.65288
40.98019,-75.943436
41.626305,-74.63378
38.371525,-75.69297
39.712284,-75.38735
38.68817,-73.20398
40.45381,-74.37171
39.694096,-72.29578
39.885696,-72.43247
41.484253,-75.08971
39.84829,-75.4958
38.33064,-74.77088
38.55787,-72.897896
41.24718,-74.01946
41.667713,-75.711555
38.09953,-75.17789
39.438274,-75.85682
38.37101,-73.838554
39.454308,-75.47484
40.42959,-75.39486
41.362263,-74.30976
38.686012,-72.59915
40.49736,-74.92943
39.566242,-75.15365
38.483368,-72.70517
39.730045,-72.103065
38.68912,-72.68557
41.252914,-74.01393
41.895695,-74.89643
40.16383,-72.76935
38.06204,-75.17653
39.22218,-75.86749
40.381332,-75.34889
41.362106,-73.41636
40.915176,-75.20151
41.882156,-75.02934
39.30976,-75.218605
40.075726,-74.45047
40.08223,-73.00924
40.259182,-73.31203
39.673244,-72.60845
39.54816,-75.730736
40.162945,-72.897766
39.558784,-75.694275
39.824306,-74.86582
41.58312,-75.0313
41.43447,-72.80198
40.63266,-74.28519
40.688293,-74.21946
39.798203,-73.55066
40.678566,-73.71148
38.19012,-72.24963
39.05616,-72.361885
38.66298,-73.31918
39.305096,-74.007614
39.768345,-73.2008
39.019623,-74.76731
41.9079,-75.63374
40.921974,-72.929436
39.27644,-75.28033
38.692818,-73.59347
39.503967,-75.80049
39.89596,-75.374565
41.354225,-74.73661
38.07167,-74.94963
38.65125,-73.49433
41.46853,-75.11203
39.837303,-73.27634
40.21423,-74.12129
39.077606,-75.94584
40.63532,-75.23007
41.29584,-72.804535
41.882175,-73.02604
38.437332,-74.943886
41.26739,-75.26323
40.915306,-74.38304
39.36583,-75.73328
41.712654,-72.2943
38.84694,-73.93905
38.913013,-75.32713
38.42198,-74.31448
39.259308,-75.90262
39.709667,-72.855644
39.23535,-75.32508
38.085873,-72.598946
39.500755,-74.051
38.830593,-75.64783
38.456154,-75.30496
40.57573,-73.593636
38.263767,-74.71678
38.959526,-75.32024
39.59753,-73.48821
39.590267,-73.38461
41.36153,-73.932686
38.307053,-73.42217
41.020294,-75.65901
41.006596,-72.27062
38.268574,-72.21586
38.001358,-74.61002
38.581802,-73.14349
41.318012,-72.68855
40.595203,-74.99524
40.18072,-72.88897
39.934933,-74.33274
38.10819,-75.17356
41.557323,-75.74423
38.856144,-75.44711
39.142563,-75.79816
41.44031,-72.15569
41.750904,-73.17794
40.57299,-72.49095
41.707844,-75.13789
39.24671,-74.82815
38.278522,-72.401505
38.420124,-72.86244
40.67121,-75.657585
39.6366,-74.63101
40.63878,-72.29855
41.079514,-73.463844
39.600956,-72.82872
40.496567,-74.077866
41.77764,-75.725975
40.3789,-75.63768
38.104885,-72.18274
41.840473,-73.71129
40.314014,-75.233734
38.204445,-75.6453
39.91645,-75.888725
39.072456,-72.906944
40.190163,-73.055595
38.650124,-75.258514
40.659443,-74.72745
39.65876,-72.05427
38.86091,-74.01916
39.92482,-74.22496
38.071175,-73.51451
39.661163,-72.32571
38.62371,-75.800804
40.80787,-74.98886
41.764847,-73.23983
40.166794,-72.804855
41.805134,-72.60362
40.3382,-75.54509
38.537533,-72.281
40.856117,-75.177414
39.257442,-73.86356
40.941788,-72.67528
40.78108,-72.012405
38.78303,-75.49762
40.98228,-74.991646
40.346664,-73.06114
41.72892,-74.97241
40.897846,-74.726234
39.68681,-74.43708
40.40425,-73.89096
38.07265,-74.46507
40.926155,-74.79497
38.690826,-74.50886
39.33034,-75.57153
41.9079,-73.063416
38.923492,-72.88552
38.84176,-72.420425
39.898533,-75.028725
38.01995,-73.94549
39.157757,-75.4204
40.957657,-74.92452
39.76353,-74.826164
41.195194,-75.33478
40.92846,-72.94586
40.806606,-74.68262
39.361168,-74.95236
39.545425,-72.53108
41.51375,-75.646225
40.744278,-73.165665
39.726604,-74.62295
41.75762,-74.10791
40.643364,-74.66228
39.869595,-75.41034
39.09166,-72.81565
38.7328,-72.81727
39.727604,-74.69504
40.921787,-72.3571
41.266766,-74.50171
39.25313,-73.5827
38.52938,-74.55988
39.130352,-74.7739
40.582584,-72.65858
41.11746,-74.67598
39.04862,-74.41445
39.842808,-72.921776
39.56082,-72.144936
41.61103,-75.76301
39.09512,-73.31751
39.9933,-72.14556
38.50332,-74.38991
38.226055,-75.969154
40.358185,-72.584404
39.338455,-72.47579
38.833084,-75.594666
38.225544,-74.45412
39.738174,-75.088486
40.87521,-72.10479
40.29038,-73.7657
39.94355,-75.20133
38.287376,-72.21631
39.96847,-72.25246
41.981514,-75.3949
41.640842,-74.81664
41.31445,-74.61812
40.454964,-72.464745
38.79765,-72.973015
39.285744,-73.09594
40.038815,-74.203674
41.352665,-74.78979
41.865242,-73.76891
40.805626,-74.96122
39.638382,-75.01715
41.793705,-74.55441
40.459503,-74.42819
39.15546,-73.07944
38.616024,-75.68327
38.41178,-72.615814
39.206604,-74.94092
41.975426,-73.06827
38.11722,-74.050606
38.653446,-74.99064
40.420013,-73.39917
39.66051,-75.65785
39.163406,-75.46647
41.345913,-74.666046
41.060795,-75.711334
38.340748,-74.51734
38.722443,-75.8014
38.342316,-73.174644
41.08132,-72.06108
41.571518,-72.670006
38.11989,-74.89998
40.17859,-72.167534
38.806263,-74.39508
38.459152,-72.51037
41.50146,-75.568054
40.414516,-75.74716
39.524364,-72.59462
38.4978,-74.40185
39.88947,-73.51539
39.694645,-72.72376
41.609,-75.23234
40.569416,-74.67312
39.832733,-72.85595
39.553165,-74.2368
38.255005,-73.93649
39.359344,-73.54621
40.731693,-73.82697
39.600056,-74.33498
38.313843,-72.381065
40.865913,-75.11938
39.627426,-74.32143
41.964115,-75.13581
38.728745,-75.791374
39.733116,-72.99242
38.57525,-72.63695
39.731773,-74.08808
41.715855,-72.60067
40.811317,-74.46209
39.680717,-75.52818
41.608864,-72.63779
38.107113,-72.514626
41.651688,-75.43011
40.457767,-75.2078
39.14577,-73.250656
38.165005,-74.73624
39.56575,-73.25594
39.37587,-73.375275
39.604748,-73.27153
38.698895,-74.47536
38.432438,-75.75165
40.294987,-75.66085
38.911366,-75.503334
38.45722,-75.11263
38.610527,-75.35567
40.94426,-72.05609
39.120445,-72.66561
40.539265,-73.50901
38.115387,-72.23746
40.682358,-73.96051
39.43998,-74.04507
38.964897,-74.94798
38.644592,-72.67456
38.484375,-72.407814
41.095005,-75.67785
40.56001,-72.06891
40.08776,-75.508736
41.432293,-74.843666
40.17644,-74.305504
38.96011,-72.895676
41.831802,-73.82744
38.94303,-73.51049
39.10846,-74.12422
38.803936,-74.686226
40.473495,-73.23186
38.550076,-73.05345
38.480957,-73.99893
41.083504,-72.82454
41.47714,-74.142586
41.261826,-74.39537
40.7322,-75.34147
41.13659,-75.34762
38.86573,-75.55884
38.35167,-72.23686
41.529892,-73.25418
38.9121,-75.94634
38.21003,-75.526886
40.892036,-74.721664
39.68718,-73.81781
40.90841,-73.399956
39.980465,-73.28832
40.426468,-75.86556
38.06347,-74.55477
40.579113,-73.40012
38.752853,-75.66865
39.881023,-72.281204
40.138138,-73.12621
39.02045,-73.5916
40.809452,-75.73132
40.14814,-75.53925
41.808525,-75.223816
38.39884,-74.40265
38.35279,-73.06247
39.7333,-74.19039
39.451912,-72.39442
38.84681,-72.859406
38.850517,-74.26622
38.436714,-73.03096
39.40441,-74.1879
39.449894,-72.074455
40.955112,-73.340416
39.249405,-73.62871
40.748,-74.546326
41.466835,-75.47109
41.993374,-72.56735
39.475,-75.43373
40.660244,-73.75441
41.069702,-72.05075
40.19606,-73.39408
40.545643,-74.98332
39.569473,-72.54891
39.6603,-73.13211
41.639095,-75.49153
38.082455,-73.7679
41.971527,-72.13674
40.21361,-75.986664
41.293427,-74.771706
39.457905,-73.25898
38.00238,-72.89917
38.11865,-73.6665
39.63134,-75.60691
39.449703,-74.40851
38.72435,-73.46153
38.631554,-75.06608
40.912983,-72.83488
41.532604,-72.61273
40.57176,-74.58541
40.325386,-72.881134
40.577477,-75.348564
38.93672,-75.69215
39.515266,-72.99259
38.81547,-75.62357
39.088833,-75.159065
41.807922,-75.87276
39.242397,-72.7573
39.558838,-75.22267
38.137733,-73.78513
38.637886,-73.06259
40.01495,-74.3057
38.670666,-73.98875
38.275864,-73.66248
39.588467,-75.90068
39.852436,-75.33901
40.470325,-75.83661
40.860474,-73.98097
38.417023,-75.11469
39.303787,-74.1487
41.86407,-72.66233
41.612396,-73.94759
40.41643,-74.65678
39.307983,-75.819885
38.690887,-75.637764
40.141758,-73.938065
40.115486,-75.895744
38.507515,-73.72124
41.802734,-72.93346
39.471184,-72.33958
38.442444,-74.82748
39.8668,-72.45692
38.919724,-72.001686
39.887287,-75.10221
40.63653,-75.82388
38.561043,-74.108696
38.195488,-74.04746
38.37683,-74.10627
41.399197,-75.87443
39.839268,-75.123535
40.947422,-74.68625
40.45486,-73.417755
38.608994,-74.582756
38.92855,-72.604355
38.151028,-72.033646
39.367825,-73.343834
41.38096,-73.364624
41.034695,-72.03895
40.067165,-75.592834
38.455486,-72.9153
40.333424,-74.35188
40.108036,-75.65452
38.765495,-74.302246
41.88125,-74.012566
39.63215,-75.440865
38.2811,-75.6125
41.326958,-75.976494
40.99125,-72.81675
39.71386,-74.73212
41.748394,-75.16073
41.152664,-73.120125
38.238354,-74.60727
38.548058,-73.29203
41.34663,-73.637405
40.07607,-73.71451
41.90808,-74.142044
39.87829,-75.72552
41.207176,-73.87357
38.869904,-72.0745
40.809048,-73.94647
39.09084,-73.48243
40.590683,-75.068214
38.25878,-72.242584
40.64155,-74.80198
41.19098,-72.12906
38.377144,-72.612404
40.693005,-74.63403
40.933487,-74.56495
38.823944,-74.99968
40.672943,-74.61635
38.90858,-75.76823
41.23376,-73.16154
41.359745,-73.70153
41.609756,-75.04536
40.693012,-74.916756
39.67889,-75.193886
38.76805,-72.88048
39.648342,-75.39824
38.29592,-74.37057
38.09959,-75.05796
38.341347,-72.462975
38.563694,-72.76406
41.56818,-73.77415
39.509636,-74.81306
40.281666,-73.27361
39.77617,-75.8702
40.182648,-73.59601
40.120235,-74.25811
39.7481,-73.48615
40.80657,-72.387405
38.184196,-74.30074
38.94886,-73.7594
38.169525,-75.79959
41.371414,-74.284615
41.63628,-74.15912
41.642326,-75.33941
39.458805,-72.53921
39.99792,-73.4287
41.27575,-73.87863
41.3096,-72.37636
41.221878,-74.06633
40.026463,-74.90175
40.857193,-74.358154
41.96069,-74.978645
39.137188,-74.939125
38.481644,-72.66069
38.262634,-72.86631
41.573685,-74.68841
40.38782,-72.20015
40.531277,-75.191505
38.471886,-74.81448
39.862843,-72.633255
41.360916,-72.97521
38.115967,-73.71267
41.13346,-75.04111
40.49639,-75.58503
41.78578,-74.251564
41.820198,-72.25956
40.74543,-72.14545
38.813408,-72.599205
38.064323,-74.26202
40.1691,-75.63427
40.35013,-73.904724
40.015125,-72.99866
38.754288,-74.33524
40.27347,-73.73228
38.166237,-75.17987
39.356533,-74.43
38.997997,-72.3811
38.108685,-73.16004
40.72616,-73.96112
39.040142,-73.56086
38.146145,-74.36339
39.701656,-73.33468
41.85627,-72.32572
40.31446,-75.70114
41.908348,-74.170975
38.113148,-72.40945
40.232067,-75.07627
41.70548,-75.221146
41.069157,-75.23206
41.34099,-74.39596
41.25981,-73.69921
39.360367,-74.10443
39.140236,-73.02459
39.133156,-72.75645
41.68081,-75.02899
39.158215,-73.31285
39.27648,-74.31974
40.187878,-75.5168
39.563915,-74.62477
40.54357,-74.85646
40.365856,-72.55382
41.331177,-72.60322
40.246525,-72.36234
38.9642,-75.550354
41.40979,-73.157524
39.00064,-75.633026
40.303688,-74.11524
41.34531,-72.40574
40.142952,-75.980225
40.72739,-75.792206
38.769638,-74.64499
41.208347,-74.44214
40.29833,-74.13031
40.296585,-74.70975
39.605503,-72.94166
40.843086,-74.422676
40.005493,-75.61152
40.880005,-74.391106
39.801464,-72.25178
41.36765,-72.60393
41.517014,-72.0684
41.672592,-73.30062
39.521275,-74.90203
39.56185,-75.05703
39.789978,-75.76311
41.428112,-74.58486
40.341427,-72.772995
41.034992,-75.45637
38.406677,-73.588806
40.777294,-73.20636
38.90693,-73.89843
38.590046,-75.44695
41.900414,-73.484055
40.325237,-75.4094
40.22007,-74.16169
40.57197,-72.79166
39.75961,-72.04574
41.263,-72.467094
39.298187,-72.43185
38.53866,-72.46417
41.215183,-72.446915
39.591675,-73.061104
40.08089,-73.728386
40.768745,-73.69336
41.373497,-72.94957
40.04549,-74.92275
40.236782,-72.12413
39.921436,-75.67965
38.338852,-72.360664
41.413754,-74.516754
41.914223,-73.092575
41.589108,-74.293915
41.676907,-75.713684
41.199776,-73.57597
39.500244,-75.87639
39.53436,-75.53402
38.902092,-75.26632
38.418133,-75.19803
38.096214,-74.20042
39.078907,-72.8542
38.62941,-72.5886
38.81998,-73.99191
38.688385,-72.27326
38.412514,-72.69727
38.612812,-73.0744
38.94931,-74.41514
39.886074,-72.51788
38.5159,-73.6494
38.099518,-72.6427
40.17147,-74.96924
39.61958,-75.842415
41.94246,-73.602036
38.761642,-75.70378
41.17839,-73.32383
41.334694,-72.508934
38.879185,-72.14572
40.923485,-73.648964
41.46333,-74.71675
41.98999,-75.778595
41.708275,-72.134766
41.88489,-74.18117
38.87129,-75.13021
39.557762,-73.50787
40.716362,-72.95226
40.848186,-75.73712
41.569317,-73.77004
41.748882,-72.74172
41.649353,-72.46931
38.288082,-72.06071
38.644505,-74.2778
41.326523,-73.09545
38.48649,-75.03231
38.561134,-73.6705
40.02545,-72.88245
38.643078,-74.33831
40.108067,-75.02716
39.133236,-73.52302
41.536537,-72.35103
38.929256,-74.08793
39.45704,-73.65867
38.01077,-75.60709
38.632336,-75.12479
38.383774,-74.89556
40.345505,-74.54884
40.79297,-75.513016
38.723118,-73.42977
39.25668,-72.24862
40.23288,-75.59712
40.220177,-75.20401
38.99031,-72.4282
39.88878,-72.13763
39.103287,-74.260666
38.174595,-74.27594
40.204372,-74.62913
39.064304,-72.83118
40.99552,-75.00266
38.797325,-74.92493
41.29563,-75.80451
39.053303,-72.37332
39.789715,-75.12138
41.7173,-75.65101
40.292007,-74.55888
40.36496,-75.064064
38.530632,-72.51265
38.344982,-73.40972
38.725742,-75.47838
41.502453,-74.804665
41.86824,-74.13306
41.765537,-73.48191
40.72469,-73.43703
40.904533,-74.68555
40.122063,-75.02143
41.973366,-72.76578
38.74177,-72.165764
41.778545,-72.56569
39.02653,-72.70046
41.021782,-75.50372
41.239735,-73.59173
39.67412,-73.6386
41.39042,-72.62069
39.11878,-72.64023
39.636417,-75.732994
39.416344,-75.1008
39.70411,-75.0235
40.781754,-75.065414
40.429184,-72.08605
38.411655,-73.03514
40.154343,-72.189964
41.87119,-72.93271
39.655296,-74.47077
39.35937,-75.49215
40.556793,-75.50691
39.655212,-74.04755
38.70847,-72.19991
41.046165,-72.49883
39.39263,-74.12168
39.014057,-74.007706
41.01992,-73.21761
41.170406,-73.34533
40.436035,-73.171715
40.47551,-73.334274
40.225723,-75.503555
38.0378,-73.99603
41.38532,-73.66508
41.979362,-74.26616
40.18038,-73.566986
38.489296,-74.84282
39.461258,-74.05273
38.10097,-74.199295
39.5399,-75.25695
39.566723,-75.264084
40.111813,-75.373405
41.921112,-75.93555
40.625942,-72.39258
39.191216,-74.57451
40.763355,-73.566536
41.81123,-72.96488
39.895832,-74.86953
38.523987,-72.9464
39.984257,-72.13878
38.110325,-72.937775
41.581577,-73.926056
41.69848,-74.754715
41.477425,-73.834305
39.001686,-74.293594
38.924294,-74.15456
41.257587,-74.54377
41.99422,-75.29905
38.854713,-73.69441
40.918633,-73.62167
39.899044,-72.43503
40.562943,-73.94381
39.87917,-75.471825
38.595295,-73.11257
41.026703,-73.291084
39.350834,-73.301056
41.146122,-74.72855
39.607727,-75.04213
38.124844,-72.32239
40.029404,-74.13503
39.86196,-73.04472
41.252636,-73.97829
38.117367,-75.06911
41.68852,-75.404686
40.238888,-75.922585
40.042023,-72.00008
38.643032,-73.81179
41.145664,-73.89373
41.38726,-74.161835
38.5579,-73.26523
39.572617,-73.46045
39.922405,-75.912025
41.362244,-75.29149
39.558964,-75.18954
41.11332,-75.842896
38.210976,-74.93732
41.829277,-73.99273
41.171974,-74.5426
40.49026,-72.0592
40.829594,-73.4061
38.76984,-72.13074
41.488636,-73.54178
38.464485,-74.190094
41.465992,-75.07749
39.231033,-75.57216
38.002293,-75.6787
41.84142,-72.14367
41.434364,-74.483444
40.329613,-74.39847
39.05686,-75.53986
38.643208,-72.79518
41.72173,-73.94391
40.553,-75.43398
38.84381,-75.28525
40.76294,-74.82147
38.27548,-74.46499
40.85699,-73.191055
40.471165,-74.726326
38.688324,-73.752205
38.284714,-74.553345
38.14172,-73.393295
39.241966,-74.096985
38.276787,-73.75641
39.63366,-74.56959
40.394688,-74.171616
40.5177,-74.63838
38.583675,-73.553795
40.75636,-75.70866
41.12151,-75.83613
39.405655,-74.02105
38.3896,-73.586555
41.79744,-74.034546
40.642136,-74.810776
40.997322,-75.40494
39.342625,-72.20828
40.284775,-73.21201
41.41241,-72.87609
41.998375,-72.590294
41.52546,-72.14283
39.445415,-74.66755
41.73769,-75.299
39.328857,-75.23989
38.77738,-72.837074
38.84706,-74.87663
39.077454,-72.73733
38.6357,-73.55509
40.245083,-75.57749
41.223137,-74.31441
38.596752,-73.99005
41.647778,-75.06602
39.4063,-72.36167
38.14026,-73.321526
40.70241,-75.7232
39.917152,-73.347946
38.20446,-74.51197
38.592667,-72.72686
41.00894,-73.23468
41.728325,-73.503876
39.9522,-74.88957
38.659073,-75.53358
41.511143,-73.12997
40.82063,-74.15522
38.30617,-72.31329
41.03297,-72.314995
38.69739,-72.46422
40.057255,-74.46004
38.88492,-74.408615
40.53847,-75.181335
38.919666,-75.46498
38.2875,-73.33054
38.996426,-75.60857
39.669273,-75.26851
41.543365,-72.38318
38.38734,-72.549095
39.46112,-72.39897
38.739326,-72.66482
38.23206,-73.328674
38.826515,-73.883965
38.66098,-72.14692
38.40949,-73.531235
38.179245,-73.13043
38.09871,-72.58377
38.714622,-74.97229
38.15517,-74.88591
40.181343,-73.3197
38.964638,-75.78161
41.073074,-72.118164
40.66587,-75.11335
41.153076,-72.26828
39.69618,-74.36751
39.850204,-73.14729
39.218235,-73.72346
41.018475,-74.32274
38.3729,-74.78983
39.846478,-72.03764
40.739967,-73.2256
39.86778,-75.45869
41.77069,-73.02394
40.49418,-72.87124
41.582893,-73.19766
40.852524,-72.538124
38.49545,-74.59855
40.846794,-75.30666
41.949043,-75.719864
39.498108,-75.686264
38.753014,-72.0976
38.254726,-72.39657
38.464592,-74.308014
40.94523,-74.612915
40.509926,-72.95795
38.514145,-74.55773
40.572094,-75.3206
41.08855,-75.88717
41.78777,-73.660225
40.045185,-75.6222
39.21245,-73.52921
39.663017,-73.23253
41.447193,-73.56298
39.05035,-75.89422
39.693546,-72.1313
39.035263,-72.84344
40.05596,-72.657074
38.623413,-73.00878
38.693607,-73.949394
41.789604,-74.532585
40.298683,-74.42009
40.42374,-72.13355
38.02279,-74.900604
41.155117,-75.20206
40.87413,-73.7276
40.800343,-72.67726
41.067497,-75.035095
40.902325,-73.69004
38.939373,-74.43046
40.14472,-75.16353
39.767685,-74.53219
41.545097,-75.478134
39.898205,-75.734886
40.770813,-75.30026
38.528076,-74.00728
39.515327,-74.05329
39.69459,-74.92415
38.765198,-72.52101
40.640125,-74.32303
41.43506,-74.90164
41.760265,-72.238144
41.01991,-73.39544
38.592274,-74.812805
40.6927,-72.17035
38.37872,-75.8796
40.055054,-72.302444
38.071827,-72.414246
38.237026,-74.96698
40.46626,-75.142746
40.257782,-74.63044
38.512638,-75.67582
41.83472,-74.07466
40.63397,-73.56281
41.80867,-75.51544
38.71842,-74.938965
39.99417,-72.54482
41.882824,-75.762115
40.836246,-75.7486
38.392433,-73.21321
38.340336,-75.18784
38.39731,-73.32052
40.23478,-73.98104
41.33002,-73.35164
39.432537,-74.41562
39.641376,-72.52586
41.10011,-72.724945
41.581203,-72.09879
41.848946,-75.19871
40.3237,-74.26183
39.882652,-74.89577
38.066387,-74.423065
38.818726,-74.08403
40.787537,-73.5685
39.126503,-75.761765
39.92902,-72.260345
38.76471,-74.27807
38.993774,-73.5627
38.057793,-72.16301
38.334747,-74.38562
41.826553,-72.73381
38.50405,-73.43319
39.305252,-72.73312
38.477478,-72.59406
39.766396,-75.98848
38.73403,-73.12749
41.68027,-75.60311
40.228493,-75.712944
41.615917,-73.18244
38.23532,-74.124855
38.21342,-75.687805
39.16557,-73.180626
40.006,-73.24859
40.87771,-74.34219
39.5388,-72.15142
39.6448,-72.01858
39.326912,-74.69484
40.54167,-75.74697
39.237213,-72.01989
40.128616,-72.98745
38.699192,-72.71111
40.294495,-73.65351
41.893684,-72.15378
40.15935,-73.55784
40.192375,-75.51565
41.01148,-72.95657
38.394264,-72.9165
40.16831,-75.041336
39.810696,-75.91421
40.017105,-74.708244
40.381786,-72.86886
39.736267,-72.81737
39.471954,-72.97935
40.559277,-72.471664
40.809536,-74.69197
38.972015,-74.05597
40.537834,-74.56525
39.79296,-75.787384
38.176598,-74.28656
39.351322,-72.6767
39.410843,-74.057655
40.438004,-73.865524
40.29788,-75.617935
40.65952,-72.49862
39.295246,-72.316605
39.388996,-74.26923
41.356594,-73.372
39.60669,-74.62616
39.426273,-72.20354
41.29345,-74.88228
39.50641,-73.85855
41.235214,-74.080444
39.903954,-72.39281
38.477806,-72.85599
39.434925,-73.84446
40.415184,-75.525665
38.724964,-73.351265
38.589077,-73.50804
41.069855,-75.12038
41.524006,-74.65474
41.687923,-73.42826
39.933178,-75.29806
40.003647,-75.60049
39.83229,-72.38852
39.55455,-72.93177
39.72934,-74.032074
41.23192,-73.626236
40.168926,-73.50749
38.181194,-74.87518
40.36321,-74.35064
39.44555,-74.89081
41.11395,-73.674866
40.292206,-72.76285
41.209602,-75.332306
38.385864,-73.022385
38.26868,-75.02474
40.148746,-72.34086
40.70907,-73.69681
40.66677,-73.360176
38.07835,-74.57894
40.573536,-73.673454
41.120796,-74.61959
41.98741,-72.82844
40.233192,-73.72088
39.62421,-74.21378
38.73758,-72.57151
41.803238,-73.059685
41.849792,-72.794655
41.66488,-74.72147
39.33694,-74.875084
40.293064,-73.039406
40.43529,-74.61255
40.667553,-73.93799
38.255707,-72.82091
40.854168,-73.54083
41.06272,-72.243774
38.282154,-72.86443
38.713646,-75.21511
38.377003,-72.489136
38.236675,-75.92227
39.545834,-75.29492
38.875103,-75.13137
38.19565,-74.140785
40.60414,-73.25117
39.05933,-75.94241
41.625732,-74.41789
38.87967,-75.58471
40.966263,-72.09635
38.04021,-75.05227
39.154842,-74.16255
39.9275,-75.56814
40.97244,-74.651436
41.86973,-72.832634
41.172077,-72.8465
38.941174,-73.020966
39.429054,-74.12133
38.582287,-74.33913
38.950417,-73.31882
38.0065,-73.89863
41.330833,-72.311295
39.20321,-75.63503
39.37584,-73.00246
41.77262,-73.08468
41.523663,-75.12341
38.92292,-73.10681
39.79719,-74.893585
40.119106,-75.090096
38.33348,-73.55212
41.802353,-75.748184
41.70815,-73.94433
38.318527,-75.15772
38.54657,-72.23522
41.036613,-73.0348
39.156395,-72.32075
39.246826,-73.126144
41.802452,-73.957
41.76089,-74.69505
38.263435,-73.805626
39.463398,-72.02851
39.76131,-74.714264
41.964672,-73.24107
39.351784,-74.2677
41.87732,-73.897804
41.33364,-74.04674
41.287323,-73.55781
38.914455,-73.646515
40.235653,-74.621254
39.810665,-75.29747
39.300148,-74.15628
41.025093,-73.30428
38.814384,-73.93264
38.90976,-72.309044
38.33702,-75.88118
38.775215,-74.8736
38.461952,-75.75225
40.54998,-72.77622
41.017815,-75.92111
39.938446,-74.882034
39.53995,-74.080605
39.598534,-74.06541
41.315792,-73.903694
39.299862,-73.46221
39.325123,-72.52269
41.879784,-72.77618
38.352177,-72.66623
38.951775,-73.358086
40.08119,-75.26612
41.414246,-74.660034
38.058174,-74.97614
39.345703,-73.21557
38.27875,-73.95725
41.155754,-72.726326
41.42675,-75.03416
40.003433,-72.79816
39.335873,-74.41561
38.42071,-74.45512
41.28346,-72.026695
39.528427,-75.29516
39.771603,-75.49803
41.75426,-72.00165
38.337673,-72.30245
41.9221,-73.29296
39.80914,-73.67004
40.153847,-74.11692
41.73265,-72.93203
40.19773,-72.25673
38.23497,-72.96296
40.371494,-75.22367
39.394768,-72.46762
38.89813,-74.5224
41.714718,-74.99162
39.44193,-73.67696
41.189445,-74.65385
38.361397,-73.826324
40.786102,-75.578224
39.63438,-75.7034
41.223213,-73.64904
39.442413,-75.301956
40.393818,-75.274345
41.70172,-73.85279
38.588383,-75.00009
41.886,-74.65062
40.1008,-72.6941
41.601425,-73.01101
38.42896,-75.17242
38.660946,-74.845604
38.004734,-72.06738
41.788506,-73.112595
39.41326,-73.87038
40.302357,-73.256035
38.90834,-75.793434
38.731503,-73.656494
39.53095,-75.69193
41.673172,-72.479706
41.43637,-73.020996
39.478226,-72.96811
39.588985,-74.844864
40.5438,-74.45093
40.56186,-72.40226
39.89887,-74.86588
40.863327,-72.710724
41.002274,-73.54217
39.398727,-73.16423
41.659832,-74.98016
40.069916,-72.97601
40.945496,-74.40536
41.137245,-75.51188
38.032368,-74.43727
41.150764,-72.85881
39.76549,-72.20127
40.643543,-75.12374
40.31595,-75.961266
41.327908,-73.64266
41.83282,-74.64258
39.51378,-75.12179
38.957085,-72.660995
40.459957,-73.28807
41.49262,-72.92857
40.268166,-74.39316
40.37,-74.85955
39.943123,-74.32565
40.027,-74.17694
38.889553,-73.51287
40.016487,-75.28848
40.23053,-73.54343
40.400818,-75.36026
38.055824,-74.762375
40.477917,-75.80855
38.500736,-72.1645
39.596115,-72.03225
38.184853,-72.86011
40.05323,-73.53401
38.08835,-72.26982
38.953823,-74.28121
41.805378,-74.01615
38.842545,-74.82704
40.99669,-75.15446
40.179565,-75.37523
40.786575,-74.79437
39.3267,-72.09379
40.144485,-74.11423
40.533726,-73.46638
41.60372,-75.011314
41.1289,-72.65349
38.9556,-73.843315
41.214184,-75.49826
41.086864,-74.52243
40.94547,-75.16678
38.482857,-75.182045
38.053425,-75.11359
41.9939,-72.24204
40.558334,-75.19932
38.463963,-73.38733
41.39004,-72.88596
38.269047,-75.11484
38.39279,-75.46158
38.53974,-74.40742
40.33785,-73.60234
39.99216,-75.00256
41.25985,-74.10552
39.321724,-72.825645
41.66417,-75.5998
39.794006,-74.57078
38.723183,-74.173805
38.078262,-73.19669
39.102154,-73.31293
41.906937,-75.2566
40.95655,-74.88687
38.515446,-73.43266
41.160202,-74.215195
38.040134,-73.26947
40.008324,-74.91824
40.460934,-72.7044
40.35491,-73.24015
40.913017,-75.32304
38.065475,-75.14813
39.216072,-73.00758
40.282192,-75.54557
40.54995,-72.41741
38.610317,-73.60026
41.92348,-73.10127
41.05453,-72.13617
38.33394,-73.48707
41.28884,-74.35676
39.504524,-73.96062
38.37063,-72.38755
39.336548,-73.100815
38.860497,-73.21078
41.552956,-74.19352
40.84692,-74.916756
40.58575,-72.6463
40.77491,-75.65626
40.02816,-72.055214
38.228806,-73.52181
41.703,-72.55268
38.721848,-75.52921
39.673367,-75.75279
39.712616,-72.0653
40.735317,-72.101105
40.926537,-75.20476
38.791317,-75.66564
38.847725,-73.20395
38.027782,-73.243805
38.013214,-72.71876
39.34186,-74.91626
41.351444,-74.76908
38.626194,-73.598656
39.935547,-73.523125
38.28296,-72.409355
38.657562,-74.37964
38.96943,-75.40717
40.773388,-72.79835
38.65867,-73.01609
39.13285,-75.52204
38.5253,-75.740005
38.121067,-74.33688
39.144653,-75.01346
40.633884,-74.858635
39.543484,-74.60507
40.34322,-75.97573
38.59386,-75.19778
38.44005,-74.92847
40.243443,-73.85957
38.149956,-75.3965
39.581932,-73.2747
39.586735,-72.6818
40.52489,-72.94827
40.74389,-73.82599
40.0341,-73.18662
38.23606,-74.44201
40.68286,-73.48639
41.217426,-74.76026
40.722183,-73.972336
40.960712,-73.91567
38.628956,-75.57673
40.929398,-74.29991
40.75247,-72.56184
39.679844,-73.77439
39.764885,-72.49657
40.265976,-75.02421
39.12221,-73.59329
41.474136,-73.10886
41.923985,-75.0111
41.49151,-74.54654
40.004536,-72.89752
38.620556,-74.70813
41.690838,-74.06622
40.32082,-74.98343
40.628586,-75.72885
38.925465,-75.64471
39.92876,-72.9845
38.395157,-74.53433
39.45375,-72.13006
39.798153,-72.04771
39.48935,-75.5344
41.019867,-73.209145
38.793877,-72.00248
39.495075,-74.224594
38.847927,-72.36384
41.32255,-75.45528
38.129333,-73.51109
39.578373,-75.44353
39.803123,-73.2852
41.41641,-75.025955
38.051945,-72.38792
39.87053,-74.71618
41.398468,-74.77017
39.203987,-73.89631
40.119717,-72.505646
41.05031,-72.823105
41.868378,-74.75865
40.132652,-73.373566
38.855377,-73.777115
38.523434,-73.601006
39.680363,-74.50736
40.513596,-73.76251
38.70477,-75.99467
38.314625,-73.16372
41.640003,-75.69954
40.942184,-73.03746
38.97821,-74.65724
39.466076,-72.255905
38.544537,-74.4085
40.908096,-72.93631
41.629814,-73.14138
39.790585,-73.341064
41.015625,-75.753716
38.859547,-74.7328
38.187065,-74.75622
40.815876,-72.30246
39.911297,-72.209366
39.78669,-72.65719
39.224636,-72.28084
41.37,-72.78821
39.111637,-72.52113
38.81498,-74.526024
38.483807,-73.51615
41.495846,-75.25899
39.492287,-73.05844
40.35021,-72.6062
38.070583,-73.19205
41.24623,-74.69914
39.54439,-73.17511
39.992523,-73.07838
41.122868,-72.25398
40.39917,-72.72937
40.36915,-74.77273
40.737698,-73.67973
39.918903,-75.11204
41.246357,-75.51149
40.66962,-73.75706
39.909573,-72.195946
38.60636,-75.8688
39.34601,-72.363144
40.882023,-75.448784
40.818462,-73.43683
38.5634,-75.851234
40.49465,-75.40259
40.733257,-75.2562
41.315994,-75.170395
40.86008,-72.955154
38.160652,-75.82118
39.280933,-72.038376
38.21779,-74.20443
40.370575,-72.36955
40.235477,-73.53336
38.88672,-72.583496
41.990963,-74.39488
39.79356,-72.181725
39.197197,-75.9814
38.593296,-73.49812
40.154438,-74.82505
39.170364,-72.172516
39.64372,-74.77443
38.019867,-75.5493
40.51563,-72.73945
41.44727,-75.7948
39.641792,-75.61877
40.160564,-75.12244
38.66801,-72.031044
41.2106,-75.88686
39.450916,-73.648674
40.364685,-75.954
40.09973,-72.17038
39.930115,-74.10582
38.919655,-72.79415
39.297245,-75.66925
41.814335,-72.43005
40.87831,-74.37496
39.215168,-72.224846
39.822834,-73.90112
41.5403,-74.09776
40.35032,-75.822464
41.534916,-73.186165
41.525288,-73.88779
38.407017,-75.085884
40.89098,-74.747375
39.06298,-75.69639
39.970234,-75.442154
41.39055,-74.935745
38.942867,-72.08262
40.67149,-72.60062
38.837105,-72.05788
38.883232,-75.679146
39.66094,-72.63307
41.731155,-72.379974
39.691746,-72.66261
40.417126,-75.3598
41.596592,-75.05061
40.883015,-75.891716
38.440235,-73.150024
39.871918,-74.23224
41.53593,-75.066505
39.736855,-75.868095
41.399128,-72.31857
40.42379,-72.74535
38.98403,-74.935036
39.20007,-73.529625
41.436832,-73.2158
41.0425,-75.3828
38.619072,-73.351074
41.503952,-74.07007
41.78534,-74.13318
40.519688,-73.27223
41.49723,-74.28761
40.982716,-72.04854
41.891106,-73.61774
39.812237,-73.19017
41.871235,-72.258194
39.27383,-72.87584
38.068382,-74.86236
40.91031,-75.17924
38.192535,-73.44242
39.846542,-73.609825
41.73782,-72.70832
38.49035,-75.45919
40.199055,-72.92157
38.628708,-73.176994
39.677746,-73.23927
39.289318,-73.65324
40.947567,-75.9549
39.99034,-74.91447
41.984974,-75.56719
39.437023,-73.56569
39.231663,-73.785736
38.455654,-74.97931
40.33661,-73.9068
41.909286,-72.83716
40.033485,-73.89999
40.253475,-74.69927
39.6638,-75.4062
40.815464,-74.76806
40.48924,-72.9686
39.179398,-73.3412
38.49292,-75.44736
40.409554,-73.44124
38.30565,-75.888695
40.231144,-74.05122
40.979214,-75.25142
38.515053,-72.989296
38.646557,-74.39702
38.09204,-73.87251
39.052475,-74.6196
38.479256,-75.44196
40.215797,-75.66268
41.77562,-72.77431
38.11381,-73.511826
40.8238,-73.0539
39.594624,-75.07505
39.60786,-74.52796
38.36714,-73.91123
41.4337,-74.35297
40.848927,-74.12595
40.211605,-72.04314
38.138565,-72.04362
39.42818,-74.36392
39.00353,-73.84412
41.271248,-75.42966
39.431297,-74.51736
38.782204,-72.55238
41.187904,-74.67333
40.593807,-72.577934
41.483334,-72.319916
41.318485,-74.99865
38.089638,-72.994446
41.345974,-73.45303
41.239677,-75.85376
38.8655,-74.15092
40.80903,-74.67478
39.3349,-72.57505
40.420303,-72.31497
39.17782,-72.22221
38.29027,-75.08729
38.813843,-73.31057
39.25973,-73.71446
39.640846,-74.88514
40.21161,-74.97526
40.53196,-72.62749
41.013515,-75.712425
38.83286,-74.38358
41.548985,-72.34711
41.61095,-73.86772
38.971554,-72.18295
40.692974,-73.52019
41.984688,-72.269196
41.31949,-73.86978
40.987553,-72.04683
39.34452,-74.193214
39.91452,-72.983315
39.92955,-75.42538
41.42864,-75.40642
38.54899,-74.24649
41.014072,-74.209206
41.577232,-74.58168
40.96856,-73.38797
38.31662,-72.36077
39.15668,-75.80072
38.41377,-72.703255
40.79245,-72.342445
40.375343,-72.55467
38.932762,-72.108246
38.320797,-73.48483
39.55071,-72.17726
40.000698,-75.57841
38.102108,-75.45825
38.07723,-73.25861
38.794033,-74.58745
40.13503,-72.073135
39.017906,-73.094666
38.103294,-74.96708
39.641205,-75.825584
40.77511,-75.83375
38.393185,-75.735214
39.770706,-72.0746
38.07573,-74.39631
38.283092,-74.85267
38.737423,-72.579544
41.75607,-74.46851
38.537003,-72.682014
39.576485,-73.03717
40.373165,-75.1645
38.027996,-72.0527
41.36616,-73.00253
39.078594,-74.58244
38.149406,-74.895584
40.796696,-73.26388
39.18634,-74.98278
41.861732,-73.94764
41.80064,-72.39209
39.118027,-75.14358
40.44158,-72.3483
40.591167,-73.221794
39.357433,-72.967125
41.832306,-74.87548
41.08818,-75.38978
38.67868,-75.38152
41.09646,-73.6223
38.13146,-75.85077
39.82673,-74.333824
41.480274,-72.53213
41.224907,-72.870415
40.286407,-74.35114
38.282764,-72.7281
39.42347,-74.68868
39.82628,-75.50806
38.929768,-75.84146
41.188313,-74.6954
41.625282,-74.99336
38.55156,-72.14374
41.777344,-74.64156
40.886303,-73.531906
41.862865,-73.48035
40.121807,-75.84561
41.78507,-73.39893
39.374233,-73.621414
38.684513,-75.58926
39.91524,-75.7066
38.476444,-75.311325
41.62304,-75.00797
39.99955,-75.59303
41.743916,-75.433105
40.53867,-72.45083
38.05172,-72.215836
39.661354,-72.946045
39.38212,-72.24746
40.77407,-73.81808
41.807686,-74.02644
39.35861,-75.27292
40.490685,-73.45231
40.106613,-74.907814
41.897415,-74.91848
39.5556,-75.30865
38.288376,-72.93935
41.581642,-74.594215
40.231487,-73.74794
38.273224,-74.56506
38.65359,-73.7329
38.16022,-75.04686
39.292637,-72.99139
40.178078,-75.83898
38.29664,-73.342705
39.59775,-72.1654
41.404938,-74.49659
38.747818,-75.89183
39.224884,-74.25878
39.80983,-73.67358
38.476856,-75.180824
39.206795,-74.72063
39.930103,-74.35488
40.86655,-73.54029
40.610317,-74.48828
39.476677,-74.804924
40.559326,-75.27558
39.119827,-72.79801
41.112576,-74.6641
40.562603,-72.554245
41.78765,-73.065636
38.95647,-72.10599
40.217167,-73.02348
40.596214,-72.8953
41.19338,-72.358955
38.283123,-74.55823
38.214695,-72.39076
38.1826,-74.52819
40.64292,-73.37798
39.08744,-72.26336
40.71385,-75.75404
38.74905,-73.84555
41.52501,-75.80292
40.283123,-75.12605
38.397503,-75.927376
38.269352,-75.84862
41.63061,-73.25388
40.53472,-75.0368
38.908264,-72.63338
40.037914,-72.60883
38.05722,-72.687614
39.87145,-75.329384
39.392445,-75.9154
38.094093,-73.9135
40.722996,-72.44394
40.63746,-73.89266
38.750904,-74.15935
39.447624,-74.699036
38.908398,-74.985886
38.68938,-72.72545
38.789734,-73.25144
40.431965,-75.714874
38.69992,-75.56072
40.740112,-73.00095
41.23334,-74.51923
40.31316,-73.57628
38.292652,-72.06812
39.361282,-74.85932
40.95698,-73.099304
39.707485,-75.953804
38.81527,-72.35488
39.39488,-75.17429
40.81528,-73.2462
40.412064,-73.11235
40.67326,-72.96455
38.388054,-72.44217
38.08796,-72.8432
40.92835,-72.3523
41.363117,-72.053566
39.153194,-73.718956
40.833298,-73.99662
40.25916,-73.12027
38.29229,-74.74456
38.66874,-74.18349
40.334606,-74.09151
41.485687,-75.64669
41.346684,-75.62047
38.274506,-73.432014
41.344387,-74.05758
38.181854,-74.93248
38.77963,-72.372345
39.478474,-72.01184
38.975407,-75.840416
38.898884,-74.74669
40.453144,-72.796844
39.6804,-72.97915
41.857475,-73.19403
41.75405,-75.01199
40.54443,-72.39818
38.730804,-72.41832
39.573277,-72.906906
40.58311,-72.54471
41.537537,-73.78296
38.48219,-75.88746
38.405968,-73.444916
38.166824,-73.580864
38.652187,-75.8448
39.352623,-72.657265
39.076088,-74.74033
40.717716,-74.85963
38.81877,-72.419266
38.41015,-72.387596
39.414497,-72.47758
39.114014,-72.25038
40.890514,-74.64826
40.599693,-75.538475
41.812923,-74.72207
38.293514,-73.99944
41.99096,-72.72669
40.472458,-73.33968
41.81299,-72.10999
40.770805,-73.63732
38.72678,-73.012535
40.141068,-75.545364
38.339226,-75.0626
39.417213,-75.42726
41.45314,-73.665474
40.17203,-72.47734
41.851166,-74.61002
40.443478,-74.950676
38.860703,-72.03737
41.740337,-72.013435
40.08394,-75.40535
39.95101,-75.014854
38.860523,-73.971855
38.6093,-72.20413
40.066612,-74.38118
40.468403,-74.53323
38.075043,-74.978676
40.36201,-72.103424
39.75177,-72.246666
41.565525,-73.368324
40.200424,-73.93203
41.799145,-75.177025
40.85954,-75.64424
38.938457,-73.342316
41.087543,-73.5009
41.531,-73.303474
40.433735,-75.281425
39.284203,-72.710075
41.595955,-73.952736
39.530037,-74.91092
40.12734,-73.72406
39.834923,-72.35418
38.107162,-74.28066
40.773457,-74.19478
41.379036,-73.78345
39.597263,-72.80162
39.040623,-72.78783
40.09355,-73.638916
39.41211,-72.55102
40.143047,-73.87628
39.79783,-72.32113
41.967,-73.215
41.381477,-73.13023
41.223415,-73.39153
38.266994,-75.28026
38.21236,-74.66252
38.01423,-73.986404
40.52938,-73.75194
40.352764,-72.33642
38.42851,-74.15385
41.733494,-72.58141
39.597324,-73.67286
41.952473,-74.47881
38.49485,-75.42625
39.525105,-73.58121
39.15899,-74.44172
40.382523,-74.565506
41.56758,-72.11527
39.700916,-74.42018
41.1611,-74.234505
40.465385,-75.98895
41.744453,-74.550896
38.232277,-72.37756
41.230682,-75.96582
38.31991,-72.374886
38.9338,-72.68052
40.471653,-73.56711
38.537823,-73.99084
41.354485,-75.41717
38.45188,-73.06002
39.849915,-73.362335
41.80841,-72.69204
40.044823,-72.00944
40.485905,-72.00652
40.531334,-75.77585
38.665302,-73.57397
41.784954,-74.76826
38.79828,-73.033844
40.027912,-74.18219
40.526894,-74.95343
41.43224,-75.85093
40.911034,-72.59396
40.419106,-75.51991
40.96815,-75.673035
41.124115,-74.65479
41.497562,-75.92507
41.092655,-74.72949
39.74967,-73.480316
39.526382,-73.54335
38.822136,-72.45939
41.816658,-75.68001
39.646313,-75.8049
39.87986,-74.17825
40.805943,-73.77089
40.47261,-73.208405
38.757645,-75.63076
41.044247,-72.344666
38.66166,-72.44577
40.92366,-74.14131
41.15818,-72.00059
40.195057,-73.34119
40.026836,-73.53564
41.26185,-75.29065
41.546303,-73.40408
41.91161,-73.064186
38.1397,-73.40581
39.07265,-73.41
40.976406,-72.89191
40.100933,-75.8497
40.839245,-73.81843
40.374638,-75.970215
40.809666,-74.22168
40.534622,-72.945076
41.03467,-73.9925
40.536617,-72.358475
40.69456,-74.68258
38.73265,-73.16573
38.777756,-72.16018
38.74422,-72.72637
41.68915,-72.45953
40.510124,-75.85125
40.18465,-74.79118
40.482258,-74.20855
39.562725,-72.48825
38.71015,-73.66849
40.192287,-72.18432
39.018913,-75.60448
41.86545,-74.71683
39.477806,-73.1181
40.49753,-73.52758
39.022182,-75.86219
39.530178,-74.529785
40.88742,-75.78431
41.01568,-74.80567
41.20864,-74.82383
41.571556,-74.80503
41.81733,-73.42646
40.808113,-75.08604
38.31907,-74.68887
39.873276,-74.66423
39.673256,-74.944496
40.667267,-72.741806
39.73502,-73.52206
38.105034,-73.4418
41.89358,-75.059044
38.41021,-75.07259
40.694973,-75.87924
38.486687,-73.73773
40.126747,-73.23032
41.4206,-74.561226
38.338173,-72.24527
40.417717,-72.63408
41.5531,-72.898926
41.091946,-74.65694
38.69889,-74.47423
41.916046,-75.24496
39.03047,-75.56475
40.563354,-75.50285
40.2933,-74.79351
40.360893,-73.7348
38.574875,-75.52931
40.50237,-75.42794
41.08568,-73.17911
39.210228,-75.77917
41.14466,-75.310074
39.677624,-75.30107
40.390255,-72.030785
38.164154,-75.15758
39.77861,-74.79395
41.677444,-73.99687
39.65949,-72.07182
39.67128,-73.757515
38.845352,-75.13101
40.36871,-74.25081
38.129116,-75.26904
40.72599,-72.73362
41.4936,-73.17768
40.55365,-75.08288
38.934834,-73.31503
39.58023,-74.90586
40.34974,-75.98253
40.770504,-73.74695
40.58501,-73.83554
40.2943,-72.695526
41.09128,-73.36636
38.297207,-72.81496
39.568394,-74.98109
39.976826,-75.98745
40.731766,-74.08174
40.15563,-74.5325
40.395206,-74.4329
38.114918,-74.27199
40.28469,-73.345726
38.277115,-72.9849
39.51471,-75.099525
38.571346,-75.259865
38.931164,-72.72344
39.978394,-72.88988
39.321674,-74.9013
38.62624,-73.87807
41.89785,-73.39827
40.510128,-75.985535
41.85888,-74.03629
39.866653,-73.14467
40.959,-74.798386
38.678806,-74.00966
40.84219,-75.9921
40.778194,-73.8853
38.808243,-72.35784
41.405766,-75.16858
39.279358,-74.31416
40.568527,-73.594025
38.502884,-72.8739
38.57563,-72.77125
40.22315,-73.76237
38.053528,-73.955925
38.765556,-73.481125
39.639503,-72.35665
38.094044,-75.98364
40.362484,-75.63873
41.13498,-72.69611
40.17673,-75.16973
41.527172,-74.19956
39.76966,-73.92578
41.789734,-75.295456
41.982246,-75.243645
41.842728,-72.65384
41.13519,-75.60201
41.325897,-72.97317
40.234734,-72.62336
40.00868,-74.68589
39.23917,-72.22015
39.85149,-73.78227
39.91426,-72.41791
39.359028,-72.2926
38.71853,-75.46348
40.467636,-75.29886
38.876205,-72.39607
41.3505,-75.91159
39.367023,-74.7869
41.538456,-73.25574
40.851616,-72.7426
39.28498,-73.90532
40.234554,-75.85759
41.108673,-73.07597
38.132442,-74.369286
38.19468,-74.846565
39.26273,-72.53137
41.410007,-74.295715
38.813328,-74.82766
41.98135,-74.20174
41.119366,-75.19104
39.60436,-75.298805
39.199974,-75.39752
41.420616,-72.37976
38.445496,-72.23731
38.74398,-74.09463
38.35729,-75.32758
40.786854,-73.36023
40.90407,-75.36336
38.38569,-72.05414
38.75895,-73.4821
40.62363,-72.23566
40.220528,-72.9583
39.37832,-73.57743
38.61312,-75.79963
41.579353,-75.99882
41.830956,-73.57524
38.049625,-75.60016
41.6775,-74.99733
41.247078,-74.77716
40.804596,-74.86401
39.35083,-72.65426
41.240078,-74.85664
38.592205,-74.46238
39.382984,-74.70882
38.47409,-73.88257
40.43022,-75.20356
38.82117,-72.30445
39.779,-74.52565
38.04018,-73.96492
39.138138,-75.3489
41.43882,-72.53537
38.80475,-73.76437
39.16071,-72.34739
40.558865,-73.28149
39.761635,-75.458984
40.448044,-75.62501
41.511208,-74.47475
39.74036,-75.30944
41.298656,-74.68948
40.693016,-72.83782
38.008495,-74.90969
40.50344,-74.12206
39.18125,-75.34209
41.68116,-75.07146
41.767723,-75.28119
41.71471,-74.3972
41.21766,-72.97558
39.734947,-72.12333
40.721546,-73.93779
39.131763,-72.1064
39.167515,-72.95757
39.8168,-75.51129
38.6159,-74.99036
40.903385,-74.57226
40.476368,-74.66926
41.672188,-73.42544
38.0539,-74.11215
41.295612,-75.11004
39.979454,-74.58768
40.206203,-74.21376
39.841385,-75.02313
38.327858,-72.73769
39.978756,-72.77954
40.56888,-73.66513
41.094696,-74.018425
40.74166,-73.96596
41.616764,-74.71175
38.97522,-73.31819
40.403267,-72.21003
40.087692,-74.08239
40.61494,-72.52987
39.46176,-72.86412
41.79671,-72.334
40.70523,-73.62071
38.21441,-75.07694
40.58222,-75.42661
38.347996,-73.03425
39.98128,-73.85905
39.55093,-73.92095
38.470497,-72.09182
38.95146,-72.467445
41.515057,-73.218
40.715748,-75.53056
41.750328,-75.52612
38.146404,-74.88233
40.676655,-74.33197
38.398438,-73.48477
39.446297,-75.8593
38.81393,-74.51018
41.537144,-73.344215
40.277374,-75.22308
41.352028,-75.225555
41.15696,-74.661736
38.260452,-74.628876
38.21802,-75.3391
41.23701,-72.4447
40.58011,-74.359795
38.785877,-75.6701
41.85877,-73.79146
40.82425,-72.29068
39.918365,-72.14473
39.993168,-74.231094
41.30853,-72.65195
40.646828,-72.634346
41.920425,-72.8744
41.530487,-75.22311
38.44989,-73.132095
40.69217,-73.46238
41.974598,-74.39799
38.09887,-73.83663
40.736107,-75.62529
39.16863,-74.36404
40.772217,-72.91728
41.22499,-72.524734
41.389816,-75.372696
39.779713,-73.54216
41.93558,-74.65724
39.41742,-72.33037
39.555782,-73.10746
40.567204,-75.744896
38.594357,-73.15142
38.089767,-75.827225
39.229603,-75.652504
40.68499,-74.72933
41.476562,-74.00642
39.74741,-73.59582
38.678833,-73.943596
41.391434,-73.95803
39.28716,-74.44304
38.672844,-74.68394
38.592426,-75.32028
38.098724,-75.194374
41.979343,-73.22051
40.707848,-75.90283
41.339035,-73.17345
41.493507,-74.502556
38.980713,-73.733696
41.719067,-73.087975
41.484188,-72.159355
39.54385,-74.872635
39.518448,-73.13174
39.94682,-75.60557
39.110878,-75.186035
38.6334,-74.28121
38.894707,-75.24031
41.67524,-73.41315
38.507675,-75.249176
41.114346,-73.462944
40.895447,-72.87819
38.525158,-75.8852
41.432953,-72.94044
40.246624,-73.007996
38.472973,-75.84235
40.159378,-73.39192
38.433407,-75.07268
41.79149,-74.61542
40.42445,-74.39451
38.303314,-74.271614
39.589542,-73.3621
38.453495,-74.42223
38.995754,-72.5157
40.722218,-73.364555
39.580303,-74.47893
40.915604,-73.292854
38.17196,-72.50377
39.15951,-73.67857
41.103645,-74.024086
39.387928,-73.79338
40.87291,-74.67258
39.22905,-74.03383
41.459286,-73.110306
40.39148,-74.29005
41.35421,-72.97017
38.86733,-72.68667
39.494453,-75.22261
38.923958,-75.201004
38.821167,-75.266716
39.19008,-75.959816
40.132954,-72.903694
38.20552,-72.89549
39.595085,-75.871704
39.460823,-73.80844
41.35247,-74.55624
41.8781,-73.074234
40.128487,-73.52342
38.367363,-75.02899
39.744427,-75.27503
40.83283,-75.679756
41.747753,-72.65235
40.915356,-75.4701
41.685406,-74.118065
38.76565,-75.4752
40.208767,-73.15371
41.98652,-75.13209
41.66854,-75.596565
39.112267,-74.39497
38.98318,-72.213
39.97218,-72.4441
39.48791,-73.410416
39.189068,-73.61062
38.64991,-74.9119
38.881252,-74.28505
41.738434,-75.57619
41.167698,-72.969734
39.84856,-74.40063
40.934963,-72.46707
38.488335,-72.091225
41.93657,-73.05615
39.95844,-73.35622
41.898907,-75.42749
39.000744,-73.14832
40.953457,-74.58389
39.998898,-72.255066
38.266384,-75.77743
39.025608,-73.66165
38.869057,-73.17771
40.20379,-74.67149
38.895115,-72.13304
40.452465,-72.485565
38.002247,-74.80752
38.304768,-75.37262
39.812866,-75.30699
40.009377,-72.20418
38.673473,-72.23415
41.765343,-75.41365
41.645668,-74.46589
39.21263,-75.74059
40.953537,-73.78845
40.03944,-73.74609
40.48564,-74.26107
38.91651,-75.280685
41.56079,-74.64579
39.385426,-73.035065
41.003777,-75.21797
40.581924,-73.12771
40.4406,-75.47282
40.84848,-72.44047
41.2262,-72.82134
38.777115,-75.09974
40.986633,-75.91304
41.731277,-74.05039
41.630795,-75.76112
39.443386,-74.95329
41.914333,-72.8429
38.204933,-74.46365
41.08434,-74.705925
40.10316,-75.062584
41.4728,-75.669556
41.669235,-72.7021
38.628567,-73.74866
41.45726,-72.20465
41.981953,-73.15668
38.05323,-72.19169
39.23685,-75.32095
40.712887,-73.79719
38.607704,-72.35428
41.45416,-75.98518
39.401505,-73.900566
41.5032,-75.30654
40.83871,-72.17346
41.344948,-74.707756
40.774994,-72.23812
39.404064,-75.789665
40.303875,-75.98681
40.037285,-73.89034
39.07653,-74.10699
41.82289,-75.6549
40.37077,-73.35003
40.169533,-73.4144
41.088955,-73.73254
40.42926,-72.72249
41.390728,-74.530304
38.695614,-72.72504
38.808994,-74.08404
41.316246,-73.53688
38.50733,-74.99152
38.183125,-75.27829
40.677273,-72.11523
40.72624,-74.62888
40.620598,-72.32656
38.185944,-72.371826
41.30274,-72.81656
40.444275,-75.04692
39.40015,-75.34161
39.038597,-72.06694
39.20951,-75.5947
38.856613,-72.97275
38.166267,-74.08732
41.626713,-75.34334
38.872337,-72.02213
39.1918,-75.607895
40.00859,-72.59625
39.519943,-72.93678
38.67018,-75.40197
41.605865,-72.7635
40.688057,-74.92648
38.3107,-74.49323
38.375763,-73.87066
38.54307,-74.70694
38.668293,-75.8253
41.08414,-74.73184
38.41211,-75.9133
41.197865,-73.81516
38.048637,-75.91741
40.65183,-73.24251
40.345493,-72.19394
40.92349,-73.45523
40.221638,-73.78661
38.513596,-75.352585